$MeshFormat
2.2 0 8
$EndMeshFormat
$PhysicalNames
2
1 11 "cavern"
2 1 "domain"
$EndPhysicalNames
$Nodes
1014
1 -1 1 0
2 -1 -1 0
3 1 1 0
4 1 -1 0
5 -1 0.3 0
6 -1 -0.3 0
7 -0.95 0.29 0
8 -0.9 0.27 0
9 -0.87 0.23 0
10 -0.84 0.18 0
11 -0.85 0.13 0
12 -0.85 0.08 0
13 -0.83 0.04 0
14 -0.8100000000000001 -0 0
15 -0.77 -0.04 0
16 -0.74 -0.09 0
17 -0.73 -0.14 0
18 -0.72 -0.19 0
19 -0.72 -0.22 0
20 -0.73 -0.24 0
21 -0.77 -0.26 0
22 -0.83 -0.28 0
23 -0.91 -0.29 0
24 -1 0.3164521517004883 0
25 -1 0.3363843892209531 0
26 -1 0.3605328440990228 0
27 -1 0.3897893682882667 0
28 -1 0.4252344541343768 0
29 -1 0.4681771532346659 0
30 -1 0.5202034345725361 0
31 -1 0.5832346958045824 0
32 -1 0.6595988129296414 0
33 -1 0.752116061368548 0
34 -1 0.8642032754063631 0
35 -0.8571428571432541 1 0
36 -0.7142857142865082 1 0
37 -0.5714285714297623 1 0
38 -0.4285714285730164 1 0
39 -0.2857142857162706 1 0
40 -0.1428571428595247 1 0
41 -2.757016837051651e-12 1 0
42 0.1428571428547603 1 0
43 0.2857142857122996 1 0
44 0.4285714285698397 1 0
45 0.5714285714273799 1 0
46 0.7142857142849199 1 0
47 0.85714285714246 1 0
48 1 0.8571428571432541 0
49 1 0.7142857142865082 0
50 1 0.5714285714297623 0
51 1 0.4285714285730164 0
52 1 0.2857142857162706 0
53 1 0.1428571428595247 0
54 1 2.757016837051651e-12 0
55 1 -0.1428571428547603 0
56 1 -0.2857142857122996 0
57 1 -0.4285714285698397 0
58 1 -0.5714285714273799 0
59 1 -0.7142857142849199 0
60 1 -0.85714285714246 0
61 0.8571428571432541 -1 0
62 0.7142857142865082 -1 0
63 0.5714285714297623 -1 0
64 0.4285714285730164 -1 0
65 0.2857142857162706 -1 0
66 0.1428571428595247 -1 0
67 2.757016837051651e-12 -1 0
68 -0.1428571428547603 -1 0
69 -0.2857142857122996 -1 0
70 -0.4285714285698397 -1 0
71 -0.5714285714273799 -1 0
72 -0.7142857142849199 -1 0
73 -0.85714285714246 -1 0
74 -1 -0.8642032754074633 0
75 -1 -0.7521160613702701 0
76 -1 -0.6595988129316657 0
77 -1 -0.5832346958060846 0
78 -1 -0.5202034345735811 0
79 -1 -0.4681771532353265 0
80 -1 -0.4252344541347812 0
81 -1 -0.3897893682885167 0
82 -1 -0.3605328440991907 0
83 -1 -0.3363843892210511 0
84 -1 -0.3164521517005273 0
85 -0.9871428571428724 -0.2985714285714303 0
86 -0.9742857142857992 -0.2971428571428666 0
87 -0.9614285714286217 -0.2957142857142913 0
88 -0.9485714285715091 -0.2942857142857232 0
89 -0.9357142857143316 -0.2928571428571479 0
90 -0.9228571428571728 -0.2914285714285748 0
91 -0.8966666666666925 -0.2883333333333366 0
92 -0.8833333333334734 -0.2866666666666842 0
93 -0.8700000000001694 -0.2850000000000212 0
94 -0.8566666666667374 -0.2833333333333422 0
95 -0.843333333333433 -0.2816666666666792 0
96 -0.8180000000000429 -0.2760000000000143 0
97 -0.8060000000000586 -0.2720000000000196 0
98 -0.794000000000039 -0.2680000000000131 0
99 -0.7820000000000046 -0.2640000000000015 0
100 -0.7566666666667246 -0.2533333333333623 0
101 -0.743333333333402 -0.246666666666701 0
102 -0.7250000000000173 -0.2300000000000347 0
103 -0.72 -0.205000000000038 0
104 -0.7224999999999913 -0.1775000000000438 0
105 -0.7249999999999908 -0.1650000000000459 0
106 -0.7274999999999946 -0.1525000000000271 0
107 -0.732499999999994 -0.1275000000000295 0
108 -0.7349999999999861 -0.1150000000000693 0
109 -0.7374999999999917 -0.1025000000000414 0
110 -0.747499999999978 -0.07750000000003676 0
111 -0.7549999999999535 -0.06500000000007755 0
112 -0.7624999999999825 -0.05250000000002921 0
113 -0.7799999999999677 -0.03000000000003234 0
114 -0.7899999999999303 -0.02000000000006977 0
115 -0.799999999999965 -0.01000000000003506 0
116 -0.8166666666666519 0.01333333333330365 0
117 -0.8233333333333029 0.02666666666660597 0
118 -0.8366666666666455 0.05333333333329107 0
119 -0.8433333333333159 0.06666666666663199 0
120 -0.85 0.09249999999996611 0
121 -0.85 0.1049999999999322 0
122 -0.85 0.1174999999999634 0
123 -0.8475000000000087 0.1424999999999562 0
124 -0.8450000000000092 0.1549999999999541 0
125 -0.8425000000000037 0.1674999999999812 0
126 -0.8474999999999746 0.1924999999999578 0
127 -0.8549999999999727 0.2049999999999546 0
128 -0.8624999999999852 0.2174999999999753 0
129 -0.8774999999999726 0.2399999999999636 0
130 -0.8849999999999636 0.2499999999999514 0
131 -0.8924999999999831 0.2599999999999775 0
132 -0.9124999999999776 0.274999999999991 0
133 -0.9249999999999252 0.2799999999999701 0
134 -0.9374999999999027 0.2849999999999611 0
135 -0.9624999999999875 0.2924999999999975 0
136 -0.9749999999999333 0.2949999999999867 0
137 -0.9874999999998832 0.2974999999999766 0
138 -0.7468099666869252 -0.05233921878041676 0
139 -0.727483312583849 -0.09424571558068424 0
140 -0.7109283714878424 -0.1806535413311414 0
141 -0.8150747782023343 0.03975858786617088 0
142 -0.7727151891528083 -0.2731766701417522 0
143 -0.9511161430318366 0.5494656520330384 0
144 -0.864524019833223 0.2416214981628097 0
145 -0.8354366319262992 0.1472727744401811 0
146 -0.8208997486421032 -0.2891908017913341 0
147 0.8833886774909008 0.07505030411606915 0
148 0.06976185643053277 -0.8778524931212597 0
149 -0.07142857143114084 0.876282085173986 0
150 -0.9401695500496743 -0.6245091082399059 0
151 -0.8999428966137423 0.2818573619919227 0
152 -0.776339745962137 -0.0163397459622392 0
153 -0.8618899576604826 -0.295713672050449 0
154 -0.838890337296248 0.2056454706584558 0
155 -0.9397238380500986 0.2980872165395226 0
156 -0.7197412696601538 -0.1313170014553953 0
157 -0.9018797941731163 -0.3001596643244446 0
158 -0.8396681355453646 0.09847331724290501 0
159 -0.9634825166476318 -0.4487925442898293 0
160 -0.9705749935185121 0.4030325935545221 0
161 -0.3615964889918957 -0.887082294631648 0
162 0.8857001507449203 -0.355718298271763 0
163 0.3647784080010493 0.8730092297688459 0
164 -0.7094538271122628 -0.2128882308922669 0
165 -0.5033063249466887 0.878646613079051 0
166 -0.9408776803006329 -0.3071991104459172 0
167 -0.7442264973081817 -0.2615470053837943 0
168 -0.9140157861951659 0.6967220153237891 0
169 -0.9763662670605596 -0.3750937441896083 0
170 0.5118288324210368 -0.8656483158045171 0
171 0.877378137943516 0.5019193060245805 0
172 -0.802304417319524 0.01129741130496785 0
173 -0.8287523550130405 0.06601222141394486 0
174 -0.8299074651264886 0.17117880948515 0
175 -0.9825025010142064 0.3485004962945336 0
176 -0.6344562624306294 -0.888333177464 0
177 -0.9651725956219785 -0.3078794514884504 0
178 -0.7965358983849099 -0.2803923048454311 0
179 0.877266715874516 -0.6413644742701479 0
180 0.6428571428561499 0.8762820851733076 0
181 -0.8876128307727692 0.2733800740415312 0
182 -0.8833700965751783 0.2882112536434947 0
183 -0.8984306608141762 0.2988309837276868 0
184 -0.8787831202111694 0.3053113196389157 0
185 -0.895124868460057 0.3185841472983614 0
186 -0.874808321409964 0.3259389619208967 0
187 -0.8572727296640773 0.3100714933817453 0
188 -0.8527970227834231 0.3325112442771962 0
189 -0.8710181859798316 0.3512130745904033 0
190 -0.8415977900933829 0.3596532990537125 0
191 -0.8654339831904994 0.380169847114179 0
192 -0.8342621408674649 0.3913130067490683 0
193 -0.8078048716925446 0.3662222228517222 0
194 -0.800274921269136 0.4030879809867807 0
195 -0.7717005967195588 0.3742991635949457 0
196 -0.7618028001678829 0.4160599302067324 0
197 -0.729849432473699 0.3836110497943136 0
198 -0.7168526971157945 0.4280751512599102 0
199 -0.6832641192513385 0.3929213116897282 0
200 -0.7033391301149804 0.3443344417073775 0
201 -0.6511499830583387 0.355714477754595 0
202 -0.671846081206288 0.3046703932508086 0
203 -0.6207014845045111 0.3186307632786314 0
204 -0.63499778506728 0.2744524680286134 0
205 -0.5888733200323963 0.283433622256747 0
206 -0.6059166841462768 0.2343097150933798 0
207 -0.5581929226893267 0.2470215774710024 0
208 -0.5724540123076347 0.2036069383918809 0
209 -0.5261680119074587 0.2127591586509987 0
210 -0.541015342804814 0.1679487900282075 0
211 -0.4944856323193698 0.1772487872327569 0
212 -0.5097873834777972 0.1317942522439304 0
213 -0.4624482075330438 0.1412751166791561 0
214 -0.4785380728300032 0.09408311189727697 0
215 -0.4295939352606467 0.1041718985474582 0
216 -0.4463294899934778 0.05688881111946233 0
217 -0.395095261349062 0.06608660569016768 0
218 -0.4133861003644297 0.01423048855108652 0
219 -0.358601842069571 0.02541896913081185 0
220 -0.3415954456752524 0.07875546543842499 0
221 -0.4784930610396977 0.2231333846932666 0
222 -0.3014704152756918 0.03576303219005394 0
223 -0.2822932715634182 0.09663216675742575 0
224 -0.238488810451718 0.04538033386017712 0
225 -0.377365584754895 -0.02656209965011889 0
226 -0.2167296392161314 0.1111774711711263 0
227 -0.169629482668476 0.05988734501345917 0
228 -0.194014467412777 -0.008723994065879948 0
229 -0.1219730837894394 0.006438039129207079 0
230 -0.09678143476791436 0.07452205808721241 0
231 -0.04994247406740233 0.01637730412780974 0
232 -0.01998888510560631 0.0933709121915626 0
233 -0.1482271718501977 -0.0615607960542288 0
234 -0.5718176106534705 0.3298469563897607 0
235 0.03182997861404954 0.02957468642805854 0
236 0.06038083635673514 0.1129995631534193 0
237 -0.4322747097410989 -0.03837407882975459 0
238 -0.3963008750552097 -0.07983827607894681 0
239 -0.5832662622802904 0.1584462659804309 0
240 0.1211989507701025 0.04959163223246454 0
241 0.08705363589838727 -0.03949352955639111 0
242 0.1458446755924794 0.135401928104641 0
243 -0.4521940793958603 -0.08980659990174777 0
244 -0.4154992610891189 -0.1325677395911896 0
245 0.1829743659519283 -0.01879206061433464 0
246 0.1494847272756795 -0.1102902935881394 0
247 0.002491494193168946 0.1795253851665837 0
248 -0.4775891564778497 -0.1423947356510061 0
249 -0.4314651203623907 -0.1855869024822815 0
250 -0.6639865641803842 0.4411877010238941 0
251 -0.5008018824059738 -0.09507922949158729 0
252 -0.4896391523702078 -0.197902665815271 0
253 -0.447400207495865 -0.2398928966767774 0
254 -0.5151584720254815 -0.2529970563379021 0
255 -0.471386569858596 -0.2937160267032638 0
256 -0.4056553614975023 -0.2899742481683707 0
257 -0.5298613367597191 -0.309010319098849 0
258 -0.4901783931791116 -0.3506315498584285 0
259 -0.5463150837583539 -0.3610495266055933 0
260 -0.6531079111908293 0.2362224033050584 0
261 0.2483613915105518 -0.09109161264159982 0
262 0.2148769649784264 -0.1851734754234017 0
263 -0.5093508315137998 -0.4086226805581775 0
264 -0.5774144158580765 -0.4135811682240469 0
265 -0.758733296145735 0.4655410743845086 0
266 -0.5285181065415252 -0.4739316243249553 0
267 -0.4584044037231989 -0.4641997850392885 0
268 -0.5976020858795429 -0.481085105417544 0
269 -0.2646027307078284 0.1623668874186462 0
270 0.114122776314948 -0.2028883426638104 0
271 0.1791855521186022 -0.2840117154903081 0
272 0.07748973428060543 -0.2980227744529757 0
273 0.2843188054197718 -0.2659385137390836 0
274 0.2459445406672252 -0.3698373614298716 0
275 -0.7110664678809813 0.3055821648702943 0
276 -0.527175948181287 0.08877156436779611 0
277 -0.6413678576404251 -0.4320951109031738 0
278 -0.5484207884760972 -0.2063819333666033 0
279 -0.6624705467131691 -0.4908659473965317 0
280 -0.7000460490815463 -0.4433670640850644 0
281 0.3551961521690904 -0.3506518246118727 0
282 0.3860250213053687 -0.2427016294157437 0
283 -0.5782116840852902 -0.325224630089178 0
284 -0.5592341553570965 -0.5445015129212066 0
285 0.2758761531248914 -0.0001680502799705551 0
286 -0.7239907952287246 -0.5047947227464498 0
287 -0.7597203301054583 -0.4467574542851446 0
288 -0.685647942236549 -0.5515293942104258 0
289 -0.6806376638990471 -0.3850106741560051 0
290 0.3160581451277727 -0.4588674313018047 0
291 0.2052140694254955 -0.4738045526419672 0
292 0.4297226323947037 -0.4495919676360418 0
293 -0.864490944698258 0.418130436889859 0
294 -0.3562109097004337 -0.121802380754963 0
295 -0.8319860782308992 0.3133710317830454 0
296 0.2724000487876899 -0.5677303350896329 0
297 -0.7840675805391708 -0.5103470674692441 0
298 -0.8157543080066503 -0.4607923758005534 0
299 -0.8004045939050239 -0.4139784717175061 0
300 -0.8422046187743897 -0.4215463784936609 0
301 -0.8283048080626398 -0.3790165281837106 0
302 -0.7949968874098531 -0.3731489916669091 0
303 -0.865188647723073 -0.3884092945243307 0
304 -0.7120715856570454 -0.2284345448604239 0
305 -0.6979816314968461 -0.2228541253598035 0
306 -0.7017498869101668 -0.240470697255014 0
307 -0.6853636171781575 -0.2351126751474204 0
308 -0.6817808621969254 -0.2148014790955554 0
309 -0.6897846786307583 -0.2542067375502676 0
310 -0.665759824971706 -0.2288460489471883 0
311 -0.662656367255633 -0.2058472954669685 0
312 -0.6439030818345302 -0.2214532930156609 0
313 -0.6406614303374643 -0.1968932138274572 0
314 -0.6486665876200278 -0.2461272660536508 0
315 -0.6604557495269714 -0.1818336695925806 0
316 -0.6380777769516495 -0.1719475578728931 0
317 -0.6616377717460282 -0.1569111125629099 0
318 -0.6363004240530126 -0.1469667889706995 0
319 -0.6567511309693544 -0.1327670105319849 0
320 -0.633596019532186 -0.1217888282789503 0
321 -0.6537801967738718 -0.1087486966057452 0
322 -0.6312429522233683 -0.09592087830168518 0
323 -0.6541881880981245 -0.08198039383053086 0
324 -0.6284750466927488 -0.06879810005946882 0
325 -0.6542002655436673 -0.05147511123938998 0
326 -0.6258208541200149 -0.04019777785996623 0
327 -0.6490009873300142 -0.02265602110003867 0
328 -0.6223135606532879 -0.01058158259338317 0
329 -0.6471331429347553 0.00584936321319439 0
330 -0.6705402254716756 -0.006408100116373236 0
331 -0.671229456075475 0.02152347948156412 0
332 -0.6458780837689219 0.03505618045578083 0
333 -0.6708068118081194 0.04977508751399221 0
334 -0.6952295301471945 0.03673137119093121 0
335 -0.6949916601382373 0.06343528217034324 0
336 -0.7177305380252412 0.0512946423005769 0
337 -0.7178185549690015 0.07723262583400531 0
338 -0.6951171406335046 0.08987205477530366 0
339 -0.7181285441498404 0.1019568423638472 0
340 -0.7392608485452788 0.08986013962523155 0
341 -0.7399583984329935 0.113046853636079 0
342 -0.758826251810274 0.1012930774622032 0
343 -0.7594743553406867 0.1233832622457282 0
344 -0.7416302174794202 0.1355607279594979 0
345 -0.7609536572449833 0.1457712804582783 0
346 -0.7429459231031853 0.158204363723721 0
347 -0.6959417805407466 0.1167028184355954 0
348 -0.7628549395941301 0.1681067824215662 0
349 -0.7439791220055738 0.1816999406022392 0
350 -0.7648725419642937 0.1919497594037672 0
351 -0.758510068269308 0.08128248097905455 0
352 -0.6712512307623619 0.1038479199637977 0
353 -0.7787934799740608 0.1133916530954874 0
354 -0.7180318137565617 0.02592586888455848 0
355 -0.5964941786730233 -0.0285352281869362 0
356 -0.7218210080975317 0.1704988575579903 0
357 -0.6157666216726764 -0.1371342005476108 0
358 -0.7451439599879978 0.2061062429900659 0
359 -0.7665329942438317 0.2165477838963702 0
360 -0.6738012241926026 -0.06639253086961887 0
361 -0.6716037398625192 0.1332164124261467 0
362 -0.8391746824526651 0.1237499999999817 0
363 -0.9649543636712471 0.3060551941076896 0
364 -0.1943745581453952 0.1786497821570828 0
365 -0.2458850389916699 0.2328787278337028 0
366 -0.1707813526456488 0.2506253162530164 0
367 -0.2295535283683509 0.3105778369879103 0
368 -0.1439324896311736 0.3277969419486135 0
369 -0.2084487814223938 0.3939287093219633 0
370 -0.1140025515268967 0.4121930629323052 0
371 -0.179922374303309 0.4806866873203015 0
372 -0.273715887584207 0.4592970779562301 0
373 -0.2454205107755833 0.5491813767282459 0
374 -0.3358884516210727 0.5225895274611665 0
375 -0.08495089173447939 0.5049584277995736 0
376 -0.01673518395616913 0.4304904563266004 0
377 0.01498737919782377 0.5292249357799943 0
378 0.08775491963428231 0.4469811063882899 0
379 0.1205554740087818 0.5539535691056865 0
380 0.1970621663823716 0.4674788653454183 0
381 -0.3612933725008592 0.4385141685419343 0
382 -0.4209569658066764 0.4968053423902772 0
383 -0.3133511992356884 0.617073672118837 0
384 -0.781660354129307 0.1538669818652687 0
385 -0.4148954964833476 0.1527120308364015 0
386 -0.8402261477983581 0.2915064643718004 0
387 -0.8161983756618298 0.2950581868254647 0
388 -0.8245908045420786 0.2715768326875743 0
389 -0.7989427430219855 0.2756203162734693 0
390 -0.6048302934794362 -0.08491369262846189 0
391 -0.5929117404036118 0.004510377248588602 0
392 -0.5649474105198391 -0.0156154942971804 0
393 0.1593308646249957 -0.5825400480122978 0
394 -0.8609975441270483 -0.4561719348769385 0
395 -0.7844196184782835 0.2030937052546153 0
396 0.2321366374677287 0.5804051108416999 0
397 0.3090305695692376 0.4939945767566263 0
398 0.2735120788071387 0.3761866162482084 0
399 0.387153383315322 0.4015143231226702 0
400 0.426168339550356 0.5181432516797535 0
401 0.5045795396586611 0.4266957540429519 0
402 0.4643809789339134 0.3100522022583253 0
403 0.5834100300850327 0.3335473701902623 0
404 0.5409527059014689 0.2191550155733094 0
405 0.5475136917895209 0.5435196235348538 0
406 0.1519547995342557 0.6669084933045792 0
407 -0.8951675847249312 0.3699850893901634 0
408 -0.6212905823138566 -0.2379294250245489 0
409 -0.7384029742540529 0.03929991258304898 0
410 -0.7388056552218322 0.01612871057356725 0
411 -0.7567350008516736 0.02772321720875914 0
412 -0.9238806979420588 -0.7939842813878487 0
413 0.01537954957407191 -0.2206790135918698 0
414 -0.0205490730678191 -0.310760435292558 0
415 -0.7212719403015095 0.003498949937846815 0
416 -0.8267414528264156 0.1850926994284832 0
417 -0.8551549208006387 -0.3574879488839248 0
418 -0.8841447248425467 -0.3625244858719981 0
419 -0.8969944635262094 -0.3910124739398473 0
420 -0.07506517220381313 -0.2381134470846596 0
421 -0.113484017290794 -0.3250894890083807 0
422 -0.055739159247033 -0.3985352610468258 0
423 -0.1504606108987123 -0.412033673362287 0
424 -0.09305026442595392 -0.4859225299011464 0
425 -0.1909965012617091 -0.4996737188465681 0
426 -0.1302283020036885 -0.5772632610369057 0
427 -0.2320935298981147 -0.5908429041994454 0
428 -0.1698593528692181 -0.2514116754577325 0
429 -0.167267747971278 -0.6721842540288281 0
430 -0.2470965621426482 -0.423916850149742 0
431 -0.2179639034196633 0.6464890104836853 0
432 -0.6801925024796611 -0.116987029684549 0
433 -0.3015881313728698 0.2848717001946787 0
434 -0.7899300257753317 0.3018472596476469 0
435 -0.8159054165618886 0.1752613767993959 0
436 -0.9122403095552243 -0.364370112248881 0
437 -0.7458697597601825 0.2323471499861272 0
438 0.2289592337800311 -0.6775247327698262 0
439 -0.2886257376147279 0.7189783613616743 0
440 -0.4387304586919188 0.417502553394676 0
441 -0.495906739347698 0.4721617470882256 0
442 -0.4797395165256547 0.5505223643774531 0
443 -0.5544859314705104 0.5259442975945822 0
444 -0.5394499734793048 0.603990040097242 0
445 -0.614122260399516 0.5784007895840685 0
446 -0.6001619105940265 0.6607617865260983 0
447 -0.6799571751118469 0.6344479216546426 0
448 -0.6632431175356603 0.7231666638798689 0
449 -0.06545816677500482 -0.6528026564992666 0
450 -0.8081052099349147 0.2521396755612356 0
451 -0.7399103559134066 -0.005250667798622857 0
452 -0.7235201167993013 -0.01686021370935947 0
453 -0.6208417673209654 -0.1873260793474961 0
454 0.4238869097656504 0.1970341367392357 0
455 0.4987060682542883 0.1074866262562081 0
456 0.6631069169231585 0.2407914140843334 0
457 -0.721532779863357 0.2212912236408855 0
458 -0.7066436060652994 -0.2592787335667953 0
459 -0.6940009518926631 -0.2752476355793073 0
460 -0.7173662426523038 -0.2793977914143175 0
461 -0.6997657889286231 -0.2986144524011943 0
462 -0.7257424119164743 -0.305248606592944 0
463 -0.6745951538111251 -0.2915196680226205 0
464 -0.6457373426427686 0.120970789344859 0
465 0.3431843503722097 -0.6665427354136186 0
466 -0.2203556055652548 -0.07715506635045369 0
467 -0.9315889704866503 -0.3938415282237181 0
468 -0.7714636918361707 0.2808316992797171 0
469 -0.7494618335281062 0.6954990691783804 0
470 -0.7659247747612784 0.60671550006096 0
471 -0.1023895782784353 -0.7611829801123831 0
472 -0.8724816888397317 -0.3354156633838478 0
473 -0.8467159772923593 -0.3300985396878891 0
474 0.4642034359569742 0.6378423232824068 0
475 -0.7310626762856689 -0.08071448665602327 0
476 -0.7168486876068535 -0.08524238608935021 0
477 -0.7196844663861827 -0.07134114207140788 0
478 -0.7140906773827325 -0.09984924864104072 0
479 -0.7018162773943397 -0.09007532389762592 0
480 -0.5141629187656112 0.6819260184385805 0
481 -0.2714975889372435 -0.6836585867690514 0
482 -0.3340767041382751 -0.6028876710868494 0
483 -0.3743889923558958 -0.6942822908129156 0
484 0.3488625768853891 -0.07127582451682266 0
485 -0.6794779162130495 -0.1683925004178643 0
486 -0.7137195127914784 -0.1563675465747092 0
487 0.05084278916550761 0.3478293465790348 0
488 -0.8310408464927594 0.2488367410161394 0
489 -0.8158440714848393 0.2306890039507554 0
490 -0.7067344525630457 -0.3250641430505911 0
491 -0.7345520755496485 -0.3321695920473859 0
492 -0.7520545819699185 -0.3126181707811139 0
493 -0.7311829793115168 0.7894810396793623 0
494 -0.6503270168456864 0.1499189312584933 0
495 0.7731898323730904 -0.8696360033884245 0
496 0.8874756614502073 0.7947247673321693 0
497 -0.5607278652224391 0.02044200296499682 0
498 -0.5291023242198666 -0.001026454068664474 0
499 -0.5897087617800264 0.04510859943935559 0
500 -0.911385547850505 -0.4212639695463606 0
501 -0.05391482601184912 0.5983317914891706 0
502 -0.6446878566769533 0.06389771197324912 0
503 0.0002713437102352483 -0.4816115712990315 0
504 -0.9839039594474763 -0.3241763867050847 0
505 -0.6737687054239677 0.1667648256844239 0
506 0.5916987197619428 0.6610481805312404 0
507 -0.8201682748659866 0.1611113407631649 0
508 -0.567878673206956 -0.04574535123686025 0
509 0.292414986650668 -0.77738741459661 0
510 -0.03969089015514715 -0.1556087060962792 0
511 0.713487649272132 0.3523849658186058 0
512 -0.9151685293162048 0.3096109023731201 0
513 -0.9116649178356544 0.3317842561104472 0
514 -0.9322590732923679 0.3232048601067504 0
515 -0.9283425560995384 0.3465132865575437 0
516 -0.8725982730284845 0.2786985572160188 0
517 0.1128907929852829 -0.6954928686486082 0
518 -0.7409008617028902 -0.02438966790721492 0
519 -0.725189241155799 -0.03802550721679652 0
520 -0.7074386265427974 -0.02878134427186167 0
521 -0.6274159250773504 -0.2675632165005778 0
522 -0.5966451630615035 -0.2584354306917507 0
523 -0.5673338796664045 0.4520398934258554 0
524 -0.6286780632817992 -0.3791260652426661 0
525 0.7872193034150196 0.2594070661675167 0
526 -0.4284196892216475 -0.6151153724016237 0
527 -0.4845873339759209 -0.7088275645452424 0
528 -0.7272609995686939 -0.398382122774934 0
529 -0.3877844575772567 0.3640116415945072 0
530 -0.4542563760911219 0.3454470706904643 0
531 -0.4079689844456876 0.3022855673806255 0
532 0.2686299304338507 0.6946866434027753 0
533 0.1735091431353871 0.7838228375232505 0
534 -0.7610706440432785 0.3114503747873147 0
535 0.6688108873857562 0.5637441088131718 0
536 -0.7572988877066557 0.04814642673636506 0
537 -0.7738920452717305 0.03818802692997564 0
538 -0.7760392010845565 0.0186153362601679 0
539 -0.8133382625133854 0.1895155806383916 0
540 -0.8030411973534539 0.179697356977389 0
541 -0.7747191836287555 0.05624543587591128 0
542 -0.7900889258653704 0.04749046211083422 0
543 -0.7904471637949526 0.06517267857999928 0
544 -0.5893748401562975 -0.2256414968787286 0
545 -0.7269543281016926 0.2510705195756554 0
546 -0.1686694613723996 -0.126978546569782 0
547 -0.2347987427486618 -0.1425379185821927 0
548 -0.5271701256678125 -0.1631277645681709 0
549 -0.7621923292435318 -0.3366157703465889 0
550 -0.780186695781665 -0.3174139184334839 0
551 -0.9500538330574162 0.3384448284219502 0
552 -0.944959181580599 0.3639388040564871 0
553 -0.8122056156213661 -0.3508006760515069 0
554 -0.7079367221454589 -0.04766893358284409 0
555 -0.691061005031109 -0.03979635082286324 0
556 0.05928705502381414 0.7445540079485803 0
557 -0.8374037446949643 0.2281986632318477 0
558 -0.5697554342004155 -0.1703151922359034 0
559 -0.5548582791213159 -0.1324719464750359 0
560 -0.121764442735708 0.1947906080191705 0
561 0.5124405812255239 0.776787818317508 0
562 -0.7088939985195749 -0.1963454426846571 0
563 -0.6818488773536973 -0.1902191470586234 0
564 -0.1720261994577181 0.7712273398868466 0
565 -0.8057419650687053 0.05417621286276907 0
566 -0.8048002639523291 0.07286440234528199 0
567 -0.790853921062265 0.08232479291966985 0
568 -0.8057443872316212 0.08984925576794672 0
569 -0.6783831692047946 -0.1386723948103629 0
570 -0.6952965746338786 -0.1300494454425493 0
571 -0.699300263844302 -0.1062282090431844 0
572 -0.685578795175169 -0.09557061535828552 0
573 -0.8346670466555902 -0.2925954276376157 0
574 -0.8246844250720815 -0.3032742375457533 0
575 -0.8096296552612667 -0.3003653298265804 0
576 -0.789656597798387 0.2295587275985026 0
577 -0.7431823982877362 -0.2883195903684373 0
578 -0.6956861907326696 -0.1565366630323547 0
579 -0.846907328385901 0.267380750914569 0
580 -0.6715223394779984 0.264863290007918 0
581 0.7229455240645999 0.6634413930935876 0
582 -0.4880576924488627 -0.04810578170223365 0
583 -0.8144772270443673 -0.3159472905344922 0
584 -0.6160038386249973 0.8142289289368456 0
585 -0.2734004089936444 0.8440984583683837 0
586 -0.8238063075572175 0.7510368401095417 0
587 -0.5087289727998816 0.3937189984453252 0
588 -0.9448022236561864 -0.5554047065591778 0
589 -0.882453727645803 -0.5880524770967699 0
590 -0.878042451265016 -0.6630196235472543 0
591 -0.8137329572202888 -0.6248801773313477 0
592 -0.8120091769555581 -0.7033898308025044 0
593 -0.7435527681348313 -0.6631254767655016 0
594 -0.7465376883137421 -0.7542804809416641 0
595 -0.6624598833127492 -0.6988528962048353 0
596 -0.7674183126421719 -0.8775693242243885 0
597 -0.3017938102166564 0.366782610260018 0
598 -0.9554075236311965 0.4872710434332331 0
599 -0.9083456737165412 0.5159717207416138 0
600 -0.8971545447540298 0.5714189737094169 0
601 -0.8552786049921208 0.5356222785399152 0
602 -0.9110444164992925 0.4698960346314413 0
603 -0.6577033621119269 -0.3457217121612787 0
604 -0.9840248435144626 0.3252730775848968 0
605 -0.8197943750218509 0.08047907552305597 0
606 -0.8198502495548112 0.09717497349240548 0
607 -0.8072809996116066 0.1059478441482913 0
608 -0.8197331385327264 0.1125571271220478 0
609 -0.8080606816716213 0.1214469199708971 0
610 -0.8239951076344058 0.1270904913785235 0
611 -0.8097925173285124 0.1367066641253518 0
612 -0.7942491580942335 0.1301387806604079 0
613 -0.465557594567778 0.000725180271250217 0
614 -0.830614082330786 0.6629508344352253 0
615 -0.6433509878297275 0.179186274050081 0
616 -0.4970038712312494 -0.8741903782263294 0
617 -0.7311835858435192 -0.2539130714956024 0
618 -0.8996527792974778 -0.3405311884878301 0
619 -0.9243607590276932 -0.3412582565395708 0
620 -0.9386757680355255 -0.3623564902264341 0
621 -0.9463449665768039 -0.3386383792605517 0
622 -0.9126142848843661 -0.3209988781390221 0
623 -0.8906348183058019 -0.3208663630773191 0
624 -0.7357195065549813 -0.06541604959308839 0
625 -0.7596618521862044 -0.268571165224588 0
626 -0.7611051507652913 -0.2817674821178037 0
627 -0.7776147245848085 -0.2874177157864951 0
628 0.3908403302999562 0.09651438663833167 0
629 0.3124475135154716 0.1782604771152578 0
630 0.444798059522215 -0.01206894145762571 0
631 0.5725813915443947 0.01441245308526108 0
632 0.5303183160117717 -0.1025512861079254 0
633 0.6501995862027685 -0.07870258138340377 0
634 0.6087930798155936 -0.1936658893539668 0
635 0.7511071057357424 -0.1686542085212147 0
636 0.6861899179240983 -0.2999531717393049 0
637 0.688841664148792 0.03189564595775299 0
638 0.5707643270929186 -0.3150749365693276 0
639 0.6364172865193887 -0.4056109029665136 0
640 -0.7542683102787013 -0.0143159646172922 0
641 -0.6722127291956875 0.2023351735338331 0
642 -0.7904710147674814 0.03098604550921521 0
643 -0.7581817659676755 0.0050742076188725 0
644 -0.9131517318013553 0.8031636876619245 0
645 -0.407465344793237 0.6966367100934777 0
646 -0.6263336185174939 0.497850682743511 0
647 -0.6914608429800611 0.5542415992954522 0
648 -0.9463096399855783 -0.4933562115557151 0
649 -0.8948605891144721 -0.52860456897551 0
650 -0.8561960246186443 0.2297823852287959 0
651 -0.8351746182551638 0.07837464451021421 0
652 -0.7413209486154023 0.06433420927280563 0
653 -0.5740446534118372 -0.7741818484389538 0
654 -0.8076845544753641 0.8762287094516761 0
655 -0.7136697524786283 -0.3577044516366825 0
656 -0.9808381045577808 -0.3470038472180073 0
657 -0.3903393164933133 -0.5145945615010087 0
658 -0.2888576007211625 -0.509742026814521 0
659 -0.3329004972275583 -0.4325520476842617 0
660 -0.2925496239048109 -0.3524346751078419 0
661 -0.8715949002948378 -0.3122926710297926 0
662 -0.7815664839351887 0.2558516393291218 0
663 -0.5012876595233468 0.04004218920556783 0
664 -0.9664510963833207 -0.4063159206773082 0
665 -0.7129585387073903 -0.1163972465160761 0
666 -0.8747292524969681 0.2623320617441435 0
667 -0.555783797568838 0.1248282077954166 0
668 -0.5996638245432874 0.1175229811723652 0
669 -0.5731432036617503 0.0849466184353414 0
670 0.3499241223919958 0.2873565208564438 0
671 0.2268424794196 0.2617724673643269 0
672 -0.7569871047256642 0.5307254780317637 0
673 -0.8404948351929307 -0.3076039725683767 0
674 -0.8244486073408926 0.2144676242388852 0
675 -0.9795103267018845 0.3728110506187802 0
676 -0.8462013113938266 -0.5060999835980101 0
677 -0.9700482998912466 0.4415772350569088 0
678 -0.9411849000393592 0.4212901801245328 0
679 0.05190487102451979 -0.1323195601692408 0
680 -0.695674622078416 0.008568387849777237 0
681 -0.9250438210489103 -0.4557741138832329 0
682 0.1567377010399682 0.3596762819346151 0
683 0.1137881915081526 0.2726033611553922 0
684 -0.9513169637589151 0.3178039292477828 0
685 -0.2123472951879442 -0.8721290784232107 0
686 -0.3772883513976663 -0.3602133918924698 0
687 -0.7741489151795875 0.001182575788185359 0
688 -0.9414586067631135 0.6148789537068555 0
689 -0.7069260436966781 -0.1418065612202323 0
690 -0.7037294439483412 -0.1683402869050048 0
691 -0.6961977612130639 -0.2037571399843998 0
692 -0.9328914461962035 -0.3224845679223121 0
693 -0.01492057276082079 -0.06495747551895475 0
694 -0.7839614005668735 0.3346771615403896 0
695 -0.7459955742383129 0.3462914139394342 0
696 -0.2929567774867678 -0.08668882896661959 0
697 -0.8217934013091557 0.0523223253899524 0
698 0.8721582649677987 -0.06711390459843469 0
699 0.8816651916716375 -0.2146382564595083 0
700 -0.2053218894331165 -0.3400673807557937 0
701 -0.2576817584907389 -0.2761449042925409 0
702 -0.3350097797449262 -0.2870054199066775 0
703 -0.3151925465975948 -0.2223326998998998 0
704 0.2049003735501983 -0.8718366065873162 0
705 -0.528950435005215 -0.06421165688715159 0
706 -0.2616640535317175 -0.01786403346124422 0
707 -0.3240922665005306 0.208133076061605 0
708 -0.3274418114073122 0.1378239206032083 0
709 -0.849259545213878 0.2452641571677686 0
710 -0.7920410188280169 0.09954948014654111 0
711 -0.8060275052562584 0.02544172417061873 0
712 -0.6112135525293481 0.08183170871558058 0
713 0.8805259380406765 -0.4995279655617851 0
714 0.7531924200207287 -0.5714287624326477 0
715 0.758411349009339 -0.7140233830051255 0
716 0.6320086575989501 -0.6469378417480569 0
717 0.6334795593990885 -0.7806909313271675 0
718 0.5167530387629974 -0.7127968699077198 0
719 0.5142805387472726 -0.5758289137118143 0
720 0.8643165165529205 0.6562531876423825 0
721 -0.06336715422058477 -0.8759405716836298 0
722 -0.0511660850169157 0.3422942448012901 0
723 -0.9538546560071659 -0.3187448186986344 0
724 -0.9267146135772999 -0.3059240209607833 0
725 -0.5226214532708097 -0.6162325636446578 0
726 -0.8876115761476884 -0.3028523057556339 0
727 -0.700302437249956 0.1487367901980063 0
728 -0.8329246824526982 0.1590849364905033 0
729 -0.560114862297845 -0.2448044898608173 0
730 -0.7554246824526506 -0.03975480947161273 0
731 0.03950063759096162 -0.5990131951022785 0
732 -0.8395286898684483 0.1112264725546218 0
733 -0.6322393630788421 0.3988739539406401 0
734 0.858093116606557 0.3553671973862919 0
735 -0.7202074138948257 0.1260437224369268 0
736 -0.7252071268254237 -0.1078890428656141 0
737 -0.7877334850858406 -0.005826038971970642 0
738 -0.7886064325974711 0.00755308006304551 0
739 -0.7658254411014234 -0.02575534904135257 0
740 -0.4658792444793541 0.2824140754598582 0
741 -0.4017185553350077 0.5788634906318976 0
742 0.386749736857025 -0.560339346040635 0
743 0.1415071076143617 -0.3812272001399314 0
744 -0.9129936597955833 0.2897707613364605 0
745 0.06539080418652603 0.8661289506334802 0
746 -0.05470560145279238 0.7600413383774693 0
747 -0.5134133284092113 0.3214700488720308 0
748 -0.7176781409050782 -0.2445090198659962 0
749 -0.3859682300245475 -0.2332206794759352 0
750 -0.9660267582188293 -0.3309921307197548 0
751 -0.788369688230074 -0.3417444752195066 0
752 -0.7759593200562082 0.09178273257133589 0
753 -0.7341654835250316 -0.2700332437792404 0
754 0.6178225368556953 0.1271006881894729 0
755 -0.8691929556297855 0.4862263984175699 0
756 -0.8136009250225317 0.4927322216470668 0
757 -0.3771032703964246 0.884204264717545 0
758 0.6251850057340969 0.448831985890769 0
759 -0.744275287982457 -0.3606855298053729 0
760 -0.573388014465164 0.391184723917251 0
761 -0.4168347210972829 -0.7876512488837657 0
762 -0.9265295863048699 0.295004213618994 0
763 -0.7075325362446475 -0.01085211206468388 0
764 -0.7858519769784338 0.1793587312127848 0
765 0.207512367547071 0.07226296287003497 0
766 0.8829849098057339 -0.7810446388338973 0
767 -0.848832275004567 -0.2951863127881227 0
768 0.7952687288739148 0.8907870335796751 0
769 0.3466819547703229 0.6059865405182533 0
770 -0.8274346267053079 -0.7926451327503261 0
771 -0.7845731624245141 -0.2745973381547386 0
772 -0.7919146259879707 -0.2969384843084317 0
773 -0.9537628208518019 -0.3061346123343521 0
774 0.3141154695908725 -0.1660629351835597 0
775 -0.9791584845152529 -0.3091501592851487 0
776 0.7587805814350213 -0.4244557489826069 0
777 -0.8045553338123237 0.2139569546659412 0
778 -0.7339906073507779 -0.05063644580582712 0
779 -0.9515903157655702 0.3025021000323161 0
780 -0.9678786944526701 0.3215899567301712 0
781 -0.9785354477446808 0.3089407173788275 0
782 -0.698958590595804 -0.1854640783521955 0
783 -0.8477384528447289 0.2170412626399855 0
784 -0.6201388640954439 0.0199572683850518 0
785 0.04534837392896768 0.6290446525363388 0
786 -0.3072511842408531 -0.7820898720762691 0
787 0.04032113297103931 -0.3894430818113334 0
788 -0.8071633213793921 -0.2858144867953019 0
789 -0.1453426424069061 0.1265481894351283 0
790 -0.839298709679364 0.594394869000844 0
791 -0.7554602834608107 0.2576454435164951 0
792 -0.7378277003911076 0.2857202839123932 0
793 0.007629234564341253 -0.7444788784449267 0
794 -0.9451616662753661 0.3925821290128499 0
795 -0.9169873777963132 0.3970407659242691 0
796 -0.7488051437360452 -0.5766732016808591 0
797 -0.8022948228734053 0.1641005448992268 0
798 -0.7977476545224035 0.1475926477675444 0
799 -0.8223862687069369 0.1420650350630425 0
800 -0.7762167481240445 0.1332768175967291 0
801 0.7599540569177664 0.1372548587554808 0
802 -0.5127522982808426 0.2602529109325018 0
803 -0.379970289585896 0.1177314713045355 0
804 -0.4462907119631617 0.1903893399553279 0
805 -0.3905953536682469 0.2038085520113286 0
806 -0.4766452369793632 -0.5393388476995521 0
807 -0.6092304391665831 -0.6055959143094901 0
808 0.005955837422464509 0.2586772183549697 0
809 -0.2121506789231508 -0.7542489542819485 0
810 -0.7751190708916278 0.07333855962955463 0
811 -0.3225602275035802 -0.02106351827827134 0
812 -0.7960850676359077 0.114094935604325 0
813 -0.9222125683726839 0.3710815788702428 0
814 -0.8171540189989577 -0.5585822572869628 0
815 -0.6928514410938315 0.2365348429006561 0
816 0.3741669481317533 0.7309661126994538 0
817 -0.938436722884 -0.705797809834543 0
818 -0.4270603299968516 0.803506821921756 0
819 -0.6082840933011009 0.1882077793741101 0
820 -0.1516966908909486 0.5743872180518004 0
821 -0.9538239027949267 -0.3800580684086146 0
822 -0.7989676227685136 0.4463983139297735 0
823 0.5040152264159885 0.9052158266519323 0
824 -0.09581931148893044 0.266598205382406 0
825 0.3675720951044477 -0.8845265439453899 0
826 -0.4449236916058428 -0.3936483591915455 0
827 -0.6707460093259936 0.07702295485348751 0
828 -0.8210912944916761 0.3369655499885583 0
829 -0.891579703612192 0.3391555528344923 0
830 0.4935355988679786 -0.2212215181720916 0
831 -0.6003988832140156 -0.05752546791570431 0
832 -0.57058875262758 -0.6807381574286359 0
833 -0.5485031520344851 0.05644291228863765 0
834 -0.8014808378320301 0.03957060650392163 0
835 -0.4366237678993125 -0.3376247703860213 0
836 -0.8607052695036768 0.2559031480207554 0
837 -0.8364154484533858 0.1354463834802808 0
838 -0.6887695145310622 -0.07841597072856278 0
839 -0.6938455247676801 -0.05926609191604076 0
840 -0.8251645750941607 0.1992663960571989 0
841 0.1022738817141437 -0.4763454767106006 0
842 -0.6097738732889956 -0.1636357346692831 0
843 -0.6192266233567092 -0.3373585871694196 0
844 -0.6476883747242833 -0.3039450751463699 0
845 -0.8281628455962122 0.423503226809347 0
846 0.7604430516101268 -0.05340905175942658 0
847 -0.7217901983255646 0.1956814836334556 0
848 -0.6897573755012135 -0.02068634012982232 0
849 -0.6704364717835199 -0.03192536957565972 0
850 -0.4685072617797632 0.6223877247277303 0
851 -0.7253813999649839 0.1478088923752285 0
852 -0.878158933111377 -0.4200249672718731 0
853 -0.741593272828051 -0.03946952910172158 0
854 0.8875299223079717 0.1958262684934204 0
855 -0.6106641963778957 -0.1111535629094798 0
856 -0.5787665926173593 -0.107908934952383 0
857 -0.6228370338705882 -0.5347155748510397 0
858 -0.6869194137891513 -0.6204519528632826 0
859 -0.2409094071941866 -0.210462678878535 0
860 -0.5799036560373901 0.7295859807229963 0
861 -0.6982044541544475 0.1822093808220355 0
862 -0.7023923539441888 0.4862702811231732 0
863 -0.7193337335354202 -0.1443544244243315 0
864 -0.7058975416855205 -0.07586409554733395 0
865 -0.3674368082839674 0.2600021097207603 0
866 -0.4302036010258126 0.2446366254534225 0
867 -0.9076870214654565 0.9075980075642048 0
868 0.6389391244265709 -0.5134803623407509 0
869 -0.7031741171214105 0.8807257428199939 0
870 0.7551569008415143 0.4653210149159644 0
871 -0.3490788749001772 -0.06719102074578394 0
872 -0.5441066057053001 -0.1009106247834963 0
873 -0.6205340769648433 0.0486070486051466 0
874 0.218428913877773 0.8914480418765329 0
875 -0.5658489114419551 -0.2815074493838166 0
876 -0.6707317422940277 -0.2504929934914143 0
877 -0.6576501770085644 -0.2712903869916818 0
878 -0.8124604987527975 0.1503278112808172 0
879 -0.6212537513043479 -0.212804604998466 0
880 -0.6632798308373262 -0.7887409556438919 0
881 -0.9020772841072444 -0.8992564845181445 0
882 -0.9298905011510957 0.3074228755070362 0
883 -0.8161764720730162 0.06517084750700085 0
884 0.4196091736972659 -0.1359803558089615 0
885 0.4169849823643796 -0.7717505874103422 0
886 -0.04979295038069007 -0.5593226427677257 0
887 -0.3684625047473329 -0.1752171362567052 0
888 0.6408425019818973 -0.9031950501040218 0
889 -0.7250813870385896 -0.1196206581674369 0
890 -0.6098592911520653 0.3588501750561757 0
891 -0.7665850085359321 -0.3917272408306883 0
892 0.4623664990113539 -0.3393103134346572 0
893 -0.9127312650191516 -0.3036399291003098 0
894 -0.8845083459444919 0.6280731292352262 0
895 -0.08699236577081777 -0.04262823826421505 0
896 -0.3038791923608902 -0.1578576492920115 0
897 -0.8727951027615355 0.2502001892578266 0
898 0.1857132645649642 -0.7616928192579939 0
899 0.2944751476767364 0.09050997777172898 0
900 -0.6791741945746469 -0.3182966164613101 0
901 -0.9400570885229184 -0.4259959654162388 0
902 -0.1118478099019986 0.6719619693131655 0
903 -0.5490098960130494 0.2884050231844085 0
904 -0.9586930438650342 -0.3558628656070482 0
905 -0.8265259872695082 -0.3322940186012869 0
906 -0.8754190301933253 -0.2958144251213074 0
907 -0.8559418105182285 -0.3102048044722738 0
908 -0.8296664846567102 0.1049999999999314 0
909 0.5389552622380639 -0.4566200042028661 0
910 -0.07275496356220927 0.147040754436429 0
911 -0.5899308328797762 -0.1371032619649493 0
912 -0.8801575680028306 0.452582563062794 0
913 -0.9900120582518053 0.3096331893328378 0
914 -0.6084858765190038 -0.2965010758951999 0
915 -0.7151754656455288 -0.169572274962189 0
916 -0.6730728443217338 -0.08431378017236352 0
917 -0.12258649691439 -0.1791628452891396 0
918 -0.4008531659430457 -0.4406278393568736 0
919 0.2246116783875995 0.1720487414452863 0
920 -0.6476213559367857 0.09130967272423918 0
921 -0.8293840774533242 0.08956290269212561 0
922 -0.7994486637729422 -0.311882048125236 0
923 0.7806544547146234 0.5700051516592032 0
924 -0.1774649661549567 0.8975405540203015 0
925 -0.8408453662507706 0.08778217288904218 0
926 -0.8630632229347395 0.2871463191166632 0
927 -0.589750686740517 -0.1937163748497679 0
928 -0.7484682764144891 -0.2740476973747727 0
929 -0.7077363535768213 -0.1278645931584482 0
930 -0.6174363149782385 0.4450577893296634 0
931 -0.7657730152755357 -0.2986984711615547 0
932 -0.9676076353892734 0.3385657733665086 0
933 0.6458968405109595 0.7551235030568615 0
934 0.7926885895022839 -0.2926839367948796 0
935 -0.622289367062283 0.1451816007539088 0
936 -0.7981695422249224 0.0009803340402456489 0
937 -0.09989852638622866 -0.1094382630049085 0
938 -0.964052934294183 0.3566532025579016 0
939 0.07901341929407235 0.1916231720198082 0
940 -0.5296126451418626 -0.03191084028406897 0
941 -0.9900410602211203 -0.3096700252524382 0
942 -0.8753467996099403 -0.7360653016914515 0
943 -0.9097934661289999 0.3517039527525779 0
944 -0.8949341649714356 -0.446826994902763 0
945 -0.3509903817266397 0.3160984587054132 0
946 0.2822925857693446 0.7955573010121035 0
947 -0.8357656531531656 0.1938635628375865 0
948 0.8954213132048716 -0.8954213132046587 0
949 0.8954213132046587 0.8954213132048716 0
950 -0.5899691740680458 -0.3632679954661808 0
951 -0.8052213543667806 0.5542718473196916 0
952 -0.9063501271629486 0.4293010933576464 0
953 -0.7027328025634262 0.2743540863688929 0
954 -0.7610596708840436 0.06425622659948646 0
955 -0.8305002773837522 0.1163748701507122 0
956 -0.6203770793669789 0.9145536488501259 0
957 -0.5708219138713804 -0.07686928806734289 0
958 -0.8424288102863553 0.4532621934594017 0
959 -0.7096794207408204 -0.06236416647484255 0
960 -0.753319917829986 -0.02773770921224261 0
961 -0.7672796720647631 0.2384472671683753 0
962 -0.8949233445195625 -0.4816182754272259 0
963 -0.6921530910523043 -0.1734689121493465 0
964 -0.5209052098756505 -0.1267968601938593 0
965 -0.05637827723424284 0.2093264342719118 0
966 -0.8615317106257809 -0.5468234828294876 0
967 -0.8006302337811345 0.1948532169095715 0
968 -0.8636006692699539 0.27029216740243 0
969 -0.9712834807438847 -0.3187183319176598 0
970 -0.8891964762009019 0.3975929244787467 0
971 -0.5349052502500343 0.02897516259763445 0
972 -0.5418369815819317 0.3590551819060919 0
973 -0.5059464946666553 0.7678465058335878 0
974 0.3573541653313769 0.01334735921475512 0
975 -0.7212932815258359 -0.05721933909230077 0
976 -0.1849014528465937 -0.1876531169061701 0
977 -0.3449295079701226 0.7900138714160039 0
978 -0.3673990435290667 0.1640418101634158 0
979 -0.7342421610061198 0.3200731057818699 0
980 -0.8291162146064831 -0.3174628979763164 0
981 -0.9596841280217192 0.3776582625891505 0
982 0.1030632667568159 -0.7882879122204727 0
983 -0.6700993719789932 -0.100254246229165 0
984 -0.7007506994144062 0.2080757733114106 0
985 0.4424416852284 -0.6471130201957314 0
986 -0.7722804828695669 -0.3586402941364317 0
987 -0.4987393354504363 -0.01676030351232344 0
988 0.1580200888403808 0.2066899340178909 0
989 -0.7667774277825767 -0.009098411939839358 0
990 -0.7001097178050355 -0.1190079098591988 0
991 -0.9409561384036096 0.3098041962866816 0
992 -0.8364406104585589 0.2161210567208841 0
993 -0.8337814618093025 -0.3499395422816637 0
994 -0.8612728164618882 -0.322655505907168 0
995 -0.8255632971511939 0.1516419070523292 0
996 -0.8133267199491075 0.2027219597038005 0
997 -0.687583885125459 -0.3463595194931735 0
998 -0.6924152008044386 -0.1435331530419585 0
999 -0.7927839979983519 0.01867777491392267 0
1000 -0.4931176449290726 -0.7862127600235727 0
1001 0.7639751972191637 0.7743473399667226 0
1002 -0.787468478717497 0.1412188069724876 0
1003 -0.8016860236548131 -0.3286415767583352 0
1004 -0.6348978724693743 0.2082334191328631 0
1005 -0.9016955266041131 -0.3114789439991932 0
1006 0.7904939631779373 0.03265760038904127 0
1007 -0.6768032785245729 -0.2680941027354583 0
1008 -0.6253960419931199 0.1020181840970222 0
1009 -0.6763502461754154 -0.04891777713212869 0
1010 -0.02316656168277166 0.6807867519329449 0
1011 -0.9384659025142652 0.4504496705242726 0
1012 -0.7213504519537937 -0.2626007239892956 0
1013 -0.8084612114969246 0.315625285846915 0
1014 -0.6814651205851094 -0.1542724044189671 0
$EndNodes
$Elements
1960
1 1 2 11 6 6 85
2 1 2 11 6 85 86
3 1 2 11 6 86 87
4 1 2 11 6 87 88
5 1 2 11 6 88 89
6 1 2 11 6 89 90
7 1 2 11 6 90 23
8 1 2 11 7 23 91
9 1 2 11 7 91 92
10 1 2 11 7 92 93
11 1 2 11 7 93 94
12 1 2 11 7 94 95
13 1 2 11 7 95 22
14 1 2 11 8 22 96
15 1 2 11 8 96 97
16 1 2 11 8 97 98
17 1 2 11 8 98 99
18 1 2 11 8 99 21
19 1 2 11 9 21 100
20 1 2 11 9 100 101
21 1 2 11 9 101 20
22 1 2 11 10 20 102
23 1 2 11 10 102 19
24 1 2 11 11 19 103
25 1 2 11 11 103 18
26 1 2 11 12 18 104
27 1 2 11 12 104 105
28 1 2 11 12 105 106
29 1 2 11 12 106 17
30 1 2 11 13 17 107
31 1 2 11 13 107 108
32 1 2 11 13 108 109
33 1 2 11 13 109 16
34 1 2 11 14 16 110
35 1 2 11 14 110 111
36 1 2 11 14 111 112
37 1 2 11 14 112 15
38 1 2 11 15 15 113
39 1 2 11 15 113 114
40 1 2 11 15 114 115
41 1 2 11 15 115 14
42 1 2 11 16 14 116
43 1 2 11 16 116 117
44 1 2 11 16 117 13
45 1 2 11 17 13 118
46 1 2 11 17 118 119
47 1 2 11 17 119 12
48 1 2 11 18 12 120
49 1 2 11 18 120 121
50 1 2 11 18 121 122
51 1 2 11 18 122 11
52 1 2 11 19 11 123
53 1 2 11 19 123 124
54 1 2 11 19 124 125
55 1 2 11 19 125 10
56 1 2 11 20 10 126
57 1 2 11 20 126 127
58 1 2 11 20 127 128
59 1 2 11 20 128 9
60 1 2 11 21 9 129
61 1 2 11 21 129 130
62 1 2 11 21 130 131
63 1 2 11 21 131 8
64 1 2 11 22 8 132
65 1 2 11 22 132 133
66 1 2 11 22 133 134
67 1 2 11 22 134 7
68 1 2 11 23 7 135
69 1 2 11 23 135 136
70 1 2 11 23 136 137
71 1 2 11 23 137 5
72 2 2 1 1 764 384 797
73 2 2 1 1 395 764 967
74 2 2 1 1 489 450 576
75 2 2 1 1 516 182 926
76 2 2 1 1 579 488 709
77 2 2 1 1 470 647 672
78 2 2 1 1 563 308 691
79 2 2 1 1 612 353 812
80 2 2 1 1 521 844 877
81 2 2 1 1 130 131 666
82 2 2 1 1 508 705 957
83 2 2 1 1 111 138 624
84 2 2 1 1 494 615 935
85 2 2 1 1 512 744 762
86 2 2 1 1 409 536 652
87 2 2 1 1 596 594 880
88 2 2 1 1 470 447 647
89 2 2 1 1 79 159 648
90 2 2 1 1 772 627 931
91 2 2 1 1 617 20 748
92 2 2 1 1 367 433 597
93 2 2 1 1 395 350 764
94 2 2 1 1 110 111 624
95 2 2 1 1 729 254 875
96 2 2 1 1 685 471 721
97 2 2 1 1 369 367 597
98 2 2 1 1 698 635 846
99 2 2 1 1 91 92 726
100 2 2 1 1 336 409 652
101 2 2 1 1 564 149 746
102 2 2 1 1 467 664 821
103 2 2 1 1 235 241 693
104 2 2 1 1 297 286 796
105 2 2 1 1 565 141 697
106 2 2 1 1 745 556 746
107 2 2 1 1 141 565 834
108 2 2 1 1 635 698 699
109 2 2 1 1 168 586 614
110 2 2 1 1 412 770 881
111 2 2 1 1 734 511 870
112 2 2 1 1 83 504 656
113 2 2 1 1 182 184 926
114 2 2 1 1 842 558 927
115 2 2 1 1 646 250 862
116 2 2 1 1 659 657 918
117 2 2 1 1 149 745 746
118 2 2 1 1 571 432 990
119 2 2 1 1 926 579 968
120 2 2 1 1 353 612 800
121 2 2 1 1 952 293 970
122 2 2 1 1 797 384 798
123 2 2 1 1 81 169 664
124 2 2 1 1 311 308 563
125 2 2 1 1 615 819 935
126 2 2 1 1 705 872 957
127 2 2 1 1 672 265 756
128 2 2 1 1 149 564 924
129 2 2 1 1 357 855 911
130 2 2 1 1 683 671 988
131 2 2 1 1 610 362 837
132 2 2 1 1 558 842 911
133 2 2 1 1 647 646 862
134 2 2 1 1 188 190 828
135 2 2 1 1 584 165 973
136 2 2 1 1 295 188 828
137 2 2 1 1 578 486 689
138 2 2 1 1 484 630 884
139 2 2 1 1 498 663 987
140 2 2 1 1 540 764 797
141 2 2 1 1 512 183 744
142 2 2 1 1 630 632 884
143 2 2 1 1 715 495 717
144 2 2 1 1 658 657 659
145 2 2 1 1 776 714 868
146 2 2 1 1 388 488 579
147 2 2 1 1 163 561 816
148 2 2 1 1 654 36 869
149 2 2 1 1 89 90 724
150 2 2 1 1 528 287 891
151 2 2 1 1 579 709 836
152 2 2 1 1 523 441 587
153 2 2 1 1 764 540 967
154 2 2 1 1 860 584 973
155 2 2 1 1 471 685 809
156 2 2 1 1 177 723 969
157 2 2 1 1 432 571 572
158 2 2 1 1 280 287 528
159 2 2 1 1 231 235 693
160 2 2 1 1 639 776 868
161 2 2 1 1 78 79 648
162 2 2 1 1 157 91 726
163 2 2 1 1 799 610 837
164 2 2 1 1 289 528 655
165 2 2 1 1 299 300 301
166 2 2 1 1 731 503 841
167 2 2 1 1 19 164 304
168 2 2 1 1 35 36 654
169 2 2 1 1 301 303 417
170 2 2 1 1 253 249 749
171 2 2 1 1 77 78 588
172 2 2 1 1 302 301 553
173 2 2 1 1 682 671 683
174 2 2 1 1 417 418 472
175 2 2 1 1 763 680 848
176 2 2 1 1 430 425 658
177 2 2 1 1 265 672 862
178 2 2 1 1 486 578 690
179 2 2 1 1 727 356 861
180 2 2 1 1 473 472 994
181 2 2 1 1 645 480 973
182 2 2 1 1 460 577 753
183 2 2 1 1 605 173 651
184 2 2 1 1 561 163 823
185 2 2 1 1 453 842 927
186 2 2 1 1 669 499 712
187 2 2 1 1 760 733 930
188 2 2 1 1 277 280 289
189 2 2 1 1 594 596 770
190 2 2 1 1 278 544 927
191 2 2 1 1 588 78 648
192 2 2 1 1 148 721 793
193 2 2 1 1 39 585 757
194 2 2 1 1 723 177 773
195 2 2 1 1 627 178 771
196 2 2 1 1 855 856 911
197 2 2 1 1 770 596 881
198 2 2 1 1 161 70 616
199 2 2 1 1 82 83 656
200 2 2 1 1 260 641 815
201 2 2 1 1 216 613 663
202 2 2 1 1 618 619 622
203 2 2 1 1 672 647 862
204 2 2 1 1 618 436 619
205 2 2 1 1 173 605 883
206 2 2 1 1 161 616 761
207 2 2 1 1 80 81 664
208 2 2 1 1 538 411 643
209 2 2 1 1 289 280 528
210 2 2 1 1 241 679 693
211 2 2 1 1 430 658 659
212 2 2 1 1 243 251 582
213 2 2 1 1 717 170 718
214 2 2 1 1 378 380 682
215 2 2 1 1 131 181 666
216 2 2 1 1 604 781 913
217 2 2 1 1 287 298 299
218 2 2 1 1 20 102 748
219 2 2 1 1 656 504 750
220 2 2 1 1 525 511 734
221 2 2 1 1 372 369 597
222 2 2 1 1 557 650 709
223 2 2 1 1 576 450 662
224 2 2 1 1 8 151 181
225 2 2 1 1 168 614 894
226 2 2 1 1 32 168 688
227 2 2 1 1 164 103 562
228 2 2 1 1 663 498 971
229 2 2 1 1 202 580 953
230 2 2 1 1 254 257 875
231 2 2 1 1 264 277 524
232 2 2 1 1 140 690 782
233 2 2 1 1 216 218 613
234 2 2 1 1 171 734 870
235 2 2 1 1 550 772 931
236 2 2 1 1 275 202 953
237 2 2 1 1 415 354 680
238 2 2 1 1 299 298 300
239 2 2 1 1 626 577 931
240 2 2 1 1 301 300 303
241 2 2 1 1 523 587 760
242 2 2 1 1 180 561 823
243 2 2 1 1 488 489 557
244 2 2 1 1 585 39 924
245 2 2 1 1 664 467 901
246 2 2 1 1 548 278 558
247 2 2 1 1 432 569 570
248 2 2 1 1 734 52 854
249 2 2 1 1 475 110 624
250 2 2 1 1 488 557 709
251 2 2 1 1 417 472 473
252 2 2 1 1 305 164 691
253 2 2 1 1 417 303 418
254 2 2 1 1 561 180 933
255 2 2 1 1 487 378 682
256 2 2 1 1 178 772 788
257 2 2 1 1 472 418 618
258 2 2 1 1 176 596 880
259 2 2 1 1 472 618 623
260 2 2 1 1 538 643 687
261 2 2 1 1 844 463 877
262 2 2 1 1 489 576 777
263 2 2 1 1 432 570 990
264 2 2 1 1 686 256 702
265 2 2 1 1 153 661 906
266 2 2 1 1 16 110 475
267 2 2 1 1 462 492 577
268 2 2 1 1 418 436 618
269 2 2 1 1 393 731 841
270 2 2 1 1 299 301 302
271 2 2 1 1 703 887 896
272 2 2 1 1 27 160 675
273 2 2 1 1 239 667 668
274 2 2 1 1 286 288 796
275 2 2 1 1 29 598 677
276 2 2 1 1 533 745 874
277 2 2 1 1 582 251 705
278 2 2 1 1 428 700 701
279 2 2 1 1 68 685 721
280 2 2 1 1 256 253 749
281 2 2 1 1 386 579 926
282 2 2 1 1 892 638 909
283 2 2 1 1 248 252 548
284 2 2 1 1 166 89 724
285 2 2 1 1 663 613 987
286 2 2 1 1 619 621 692
287 2 2 1 1 717 495 888
288 2 2 1 1 499 669 833
289 2 2 1 1 337 336 652
290 2 2 1 1 775 504 941
291 2 2 1 1 145 799 837
292 2 2 1 1 315 311 563
293 2 2 1 1 449 731 793
294 2 2 1 1 525 734 854
295 2 2 1 1 805 707 978
296 2 2 1 1 363 684 779
297 2 2 1 1 425 427 658
298 2 2 1 1 252 254 278
299 2 2 1 1 388 450 488
300 2 2 1 1 276 214 663
301 2 2 1 1 680 330 848
302 2 2 1 1 451 640 643
303 2 2 1 1 685 161 786
304 2 2 1 1 527 653 832
305 2 2 1 1 386 388 579
306 2 2 1 1 317 315 485
307 2 2 1 1 292 719 742
308 2 2 1 1 721 471 793
309 2 2 1 1 398 670 671
310 2 2 1 1 648 159 681
311 2 2 1 1 623 622 1005
312 2 2 1 1 551 684 780
313 2 2 1 1 69 161 685
314 2 2 1 1 692 621 723
315 2 2 1 1 756 265 822
316 2 2 1 1 460 462 577
317 2 2 1 1 703 749 887
318 2 2 1 1 485 315 563
319 2 2 1 1 65 704 825
320 2 2 1 1 558 278 927
321 2 2 1 1 100 167 625
322 2 2 1 1 505 727 861
323 2 2 1 1 243 248 251
324 2 2 1 1 617 748 1012
325 2 2 1 1 707 805 865
326 2 2 1 1 428 421 700
327 2 2 1 1 354 334 680
328 2 2 1 1 565 542 834
329 2 2 1 1 688 168 894
330 2 2 1 1 411 410 643
331 2 2 1 1 524 289 603
332 2 2 1 1 432 319 569
333 2 2 1 1 912 293 952
334 2 2 1 1 615 641 1004
335 2 2 1 1 276 663 833
336 2 2 1 1 545 791 792
337 2 2 1 1 252 278 548
338 2 2 1 1 239 210 667
339 2 2 1 1 586 168 644
340 2 2 1 1 533 556 745
341 2 2 1 1 166 692 723
342 2 2 1 1 101 20 617
343 2 2 1 1 844 521 914
344 2 2 1 1 398 671 682
345 2 2 1 1 257 259 283
346 2 2 1 1 537 538 642
347 2 2 1 1 759 891 986
348 2 2 1 1 319 317 569
349 2 2 1 1 616 176 653
350 2 2 1 1 119 12 651
351 2 2 1 1 622 724 893
352 2 2 1 1 147 801 854
353 2 2 1 1 618 622 623
354 2 2 1 1 488 450 489
355 2 2 1 1 656 750 904
356 2 2 1 1 398 399 670
357 2 2 1 1 704 509 825
358 2 2 1 1 164 562 691
359 2 2 1 1 362 610 955
360 2 2 1 1 464 935 1008
361 2 2 1 1 430 659 660
362 2 2 1 1 237 243 582
363 2 2 1 1 731 517 793
364 2 2 1 1 380 398 682
365 2 2 1 1 441 440 587
366 2 2 1 1 750 621 904
367 2 2 1 1 720 581 1001
368 2 2 1 1 224 228 706
369 2 2 1 1 719 292 909
370 2 2 1 1 523 760 930
371 2 2 1 1 605 566 883
372 2 2 1 1 292 892 909
373 2 2 1 1 604 780 781
374 2 2 1 1 248 548 964
375 2 2 1 1 200 202 275
376 2 2 1 1 222 224 706
377 2 2 1 1 818 645 973
378 2 2 1 1 193 195 694
379 2 2 1 1 382 381 440
380 2 2 1 1 675 160 981
381 2 2 1 1 336 354 409
382 2 2 1 1 472 623 661
383 2 2 1 1 641 260 1004
384 2 2 1 1 71 176 616
385 2 2 1 1 409 354 410
386 2 2 1 1 440 529 530
387 2 2 1 1 480 645 850
388 2 2 1 1 582 705 940
389 2 2 1 1 157 726 1005
390 2 2 1 1 409 410 411
391 2 2 1 1 624 138 778
392 2 2 1 1 684 363 780
393 2 2 1 1 150 77 588
394 2 2 1 1 176 72 596
395 2 2 1 1 218 237 613
396 2 2 1 1 598 599 602
397 2 2 1 1 833 663 971
398 2 2 1 1 712 499 873
399 2 2 1 1 321 319 432
400 2 2 1 1 522 875 914
401 2 2 1 1 277 289 524
402 2 2 1 1 451 518 640
403 2 2 1 1 492 549 550
404 2 2 1 1 287 299 891
405 2 2 1 1 178 627 772
406 2 2 1 1 725 284 806
407 2 2 1 1 277 279 280
408 2 2 1 1 778 519 975
409 2 2 1 1 548 558 559
410 2 2 1 1 204 206 260
411 2 2 1 1 664 169 821
412 2 2 1 1 865 805 866
413 2 2 1 1 580 260 815
414 2 2 1 1 443 441 523
415 2 2 1 1 410 451 643
416 2 2 1 1 214 216 663
417 2 2 1 1 826 686 918
418 2 2 1 1 512 762 882
419 2 2 1 1 619 620 621
420 2 2 1 1 677 598 1011
421 2 2 1 1 447 445 647
422 2 2 1 1 384 800 1002
423 2 2 1 1 103 18 562
424 2 2 1 1 325 323 360
425 2 2 1 1 504 84 941
426 2 2 1 1 264 524 950
427 2 2 1 1 336 334 354
428 2 2 1 1 589 588 649
429 2 2 1 1 308 305 691
430 2 2 1 1 495 715 766
431 2 2 1 1 343 342 353
432 2 2 1 1 204 260 580
433 2 2 1 1 374 372 381
434 2 2 1 1 202 204 580
435 2 2 1 1 639 636 776
436 2 2 1 1 587 530 747
437 2 2 1 1 348 345 384
438 2 2 1 1 302 553 751
439 2 2 1 1 304 164 305
440 2 2 1 1 341 340 342
441 2 2 1 1 469 447 470
442 2 2 1 1 165 584 956
443 2 2 1 1 795 952 970
444 2 2 1 1 667 276 669
445 2 2 1 1 280 286 287
446 2 2 1 1 692 166 724
447 2 2 1 1 384 345 800
448 2 2 1 1 264 268 277
449 2 2 1 1 706 696 811
450 2 2 1 1 487 682 683
451 2 2 1 1 537 411 538
452 2 2 1 1 335 334 336
453 2 2 1 1 359 350 395
454 2 2 1 1 436 467 620
455 2 2 1 1 440 381 529
456 2 2 1 1 652 536 954
457 2 2 1 1 71 72 176
458 2 2 1 1 711 642 999
459 2 2 1 1 451 452 518
460 2 2 1 1 241 246 679
461 2 2 1 1 482 526 657
462 2 2 1 1 542 537 642
463 2 2 1 1 807 595 858
464 2 2 1 1 413 510 679
465 2 2 1 1 811 696 871
466 2 2 1 1 530 529 531
467 2 2 1 1 772 575 788
468 2 2 1 1 776 636 934
469 2 2 1 1 399 402 670
470 2 2 1 1 450 389 662
471 2 2 1 1 700 660 701
472 2 2 1 1 440 530 587
473 2 2 1 1 503 731 886
474 2 2 1 1 181 151 182
475 2 2 1 1 148 793 982
476 2 2 1 1 653 595 832
477 2 2 1 1 69 70 161
478 2 2 1 1 536 411 537
479 2 2 1 1 544 278 729
480 2 2 1 1 287 297 298
481 2 2 1 1 410 415 451
482 2 2 1 1 543 542 565
483 2 2 1 1 653 527 1000
484 2 2 1 1 462 491 492
485 2 2 1 1 382 440 441
486 2 2 1 1 37 38 165
487 2 2 1 1 193 694 828
488 2 2 1 1 267 657 806
489 2 2 1 1 445 646 647
490 2 2 1 1 342 340 351
491 2 2 1 1 266 267 806
492 2 2 1 1 297 796 814
493 2 2 1 1 24 604 913
494 2 2 1 1 655 528 759
495 2 2 1 1 418 419 436
496 2 2 1 1 622 893 1005
497 2 2 1 1 427 482 658
498 2 2 1 1 660 659 686
499 2 2 1 1 541 537 542
500 2 2 1 1 339 337 340
501 2 2 1 1 443 523 646
502 2 2 1 1 331 330 680
503 2 2 1 1 329 327 330
504 2 2 1 1 660 686 702
505 2 2 1 1 577 492 931
506 2 2 1 1 83 84 504
507 2 2 1 1 169 82 656
508 2 2 1 1 568 566 605
509 2 2 1 1 208 210 239
510 2 2 1 1 587 747 972
511 2 2 1 1 25 175 604
512 2 2 1 1 679 510 693
513 2 2 1 1 389 468 662
514 2 2 1 1 430 660 700
515 2 2 1 1 278 254 729
516 2 2 1 1 622 619 692
517 2 2 1 1 557 489 674
518 2 2 1 1 673 473 907
519 2 2 1 1 374 381 382
520 2 2 1 1 30 143 598
521 2 2 1 1 433 365 707
522 2 2 1 1 81 82 169
523 2 2 1 1 333 331 334
524 2 2 1 1 74 75 412
525 2 2 1 1 420 421 428
526 2 2 1 1 341 342 343
527 2 2 1 1 32 33 168
528 2 2 1 1 582 940 987
529 2 2 1 1 334 331 680
530 2 2 1 1 445 443 646
531 2 2 1 1 19 103 164
532 2 2 1 1 79 80 159
533 2 2 1 1 102 304 748
534 2 2 1 1 21 100 625
535 2 2 1 1 545 792 953
536 2 2 1 1 159 80 664
537 2 2 1 1 76 77 150
538 2 2 1 1 668 667 669
539 2 2 1 1 645 383 741
540 2 2 1 1 24 25 604
541 2 2 1 1 718 170 885
542 2 2 1 1 223 220 708
543 2 2 1 1 210 212 667
544 2 2 1 1 413 414 420
545 2 2 1 1 707 269 708
546 2 2 1 1 30 31 143
547 2 2 1 1 859 703 896
548 2 2 1 1 643 640 989
549 2 2 1 1 916 323 983
550 2 2 1 1 237 582 613
551 2 2 1 1 246 270 679
552 2 2 1 1 568 605 606
553 2 2 1 1 212 276 667
554 2 2 1 1 727 347 735
555 2 2 1 1 25 26 175
556 2 2 1 1 482 483 526
557 2 2 1 1 723 750 969
558 2 2 1 1 642 538 999
559 2 2 1 1 642 711 834
560 2 2 1 1 413 420 510
561 2 2 1 1 563 691 782
562 2 2 1 1 519 554 975
563 2 2 1 1 497 499 833
564 2 2 1 1 412 75 817
565 2 2 1 1 381 372 597
566 2 2 1 1 29 30 598
567 2 2 1 1 657 267 918
568 2 2 1 1 27 28 160
569 2 2 1 1 68 69 685
570 2 2 1 1 56 162 699
571 2 2 1 1 454 628 629
572 2 2 1 1 170 717 888
573 2 2 1 1 339 340 341
574 2 2 1 1 284 725 807
575 2 2 1 1 335 336 337
576 2 2 1 1 685 786 809
577 2 2 1 1 569 317 1014
578 2 2 1 1 158 908 921
579 2 2 1 1 31 32 688
580 2 2 1 1 33 34 644
581 2 2 1 1 270 413 679
582 2 2 1 1 496 720 1001
583 2 2 1 1 423 425 430
584 2 2 1 1 807 288 857
585 2 2 1 1 365 269 707
586 2 2 1 1 343 353 800
587 2 2 1 1 284 266 806
588 2 2 1 1 154 674 840
589 2 2 1 1 543 565 566
590 2 2 1 1 228 466 706
591 2 2 1 1 66 67 148
592 2 2 1 1 730 15 739
593 2 2 1 1 745 42 874
594 2 2 1 1 190 193 828
595 2 2 1 1 340 337 652
596 2 2 1 1 702 256 749
597 2 2 1 1 547 859 896
598 2 2 1 1 691 562 782
599 2 2 1 1 551 514 684
600 2 2 1 1 269 223 708
601 2 2 1 1 270 272 413
602 2 2 1 1 70 71 616
603 2 2 1 1 564 585 924
604 2 2 1 1 173 119 651
605 2 2 1 1 40 41 149
606 2 2 1 1 118 173 697
607 2 2 1 1 650 557 783
608 2 2 1 1 469 470 614
609 2 2 1 1 553 301 993
610 2 2 1 1 814 589 966
611 2 2 1 1 598 143 599
612 2 2 1 1 421 423 700
613 2 2 1 1 551 780 932
614 2 2 1 1 518 452 519
615 2 2 1 1 72 73 596
616 2 2 1 1 409 411 536
617 2 2 1 1 333 334 335
618 2 2 1 1 701 660 702
619 2 2 1 1 541 542 543
620 2 2 1 1 251 248 964
621 2 2 1 1 329 330 331
622 2 2 1 1 485 563 963
623 2 2 1 1 712 502 920
624 2 2 1 1 368 370 722
625 2 2 1 1 536 537 541
626 2 2 1 1 690 578 963
627 2 2 1 1 342 351 752
628 2 2 1 1 420 414 421
629 2 2 1 1 301 417 993
630 2 2 1 1 466 547 696
631 2 2 1 1 183 151 744
632 2 2 1 1 248 249 252
633 2 2 1 1 586 469 614
634 2 2 1 1 780 363 781
635 2 2 1 1 665 156 889
636 2 2 1 1 782 690 963
637 2 2 1 1 578 485 963
638 2 2 1 1 66 148 704
639 2 2 1 1 427 481 482
640 2 2 1 1 237 238 243
641 2 2 1 1 243 244 248
642 2 2 1 1 935 668 1008
643 2 2 1 1 420 428 917
644 2 2 1 1 722 808 824
645 2 2 1 1 187 295 386
646 2 2 1 1 423 430 700
647 2 2 1 1 356 727 851
648 2 2 1 1 386 387 388
649 2 2 1 1 402 404 454
650 2 2 1 1 492 550 931
651 2 2 1 1 716 718 719
652 2 2 1 1 359 395 576
653 2 2 1 1 410 354 415
654 2 2 1 1 704 148 982
655 2 2 1 1 824 808 965
656 2 2 1 1 454 455 628
657 2 2 1 1 661 153 907
658 2 2 1 1 316 315 317
659 2 2 1 1 413 272 414
660 2 2 1 1 589 649 966
661 2 2 1 1 206 208 819
662 2 2 1 1 516 926 968
663 2 2 1 1 451 415 452
664 2 2 1 1 200 201 202
665 2 2 1 1 197 200 695
666 2 2 1 1 212 214 276
667 2 2 1 1 482 657 658
668 2 2 1 1 147 54 698
669 2 2 1 1 53 54 147
670 2 2 1 1 323 321 983
671 2 2 1 1 478 665 736
672 2 2 1 1 388 389 450
673 2 2 1 1 521 522 914
674 2 2 1 1 586 644 654
675 2 2 1 1 701 702 703
676 2 2 1 1 581 720 923
677 2 2 1 1 478 571 665
678 2 2 1 1 353 342 752
679 2 2 1 1 100 101 167
680 2 2 1 1 35 654 867
681 2 2 1 1 350 348 764
682 2 2 1 1 648 681 962
683 2 2 1 1 197 199 200
684 2 2 1 1 872 856 957
685 2 2 1 1 289 655 997
686 2 2 1 1 670 629 671
687 2 2 1 1 34 1 867
688 2 2 1 1 252 253 254
689 2 2 1 1 674 489 777
690 2 2 1 1 933 180 1001
691 2 2 1 1 595 807 832
692 2 2 1 1 526 725 806
693 2 2 1 1 619 436 620
694 2 2 1 1 595 653 880
695 2 2 1 1 202 203 204
696 2 2 1 1 118 119 173
697 2 2 1 1 607 606 608
698 2 2 1 1 661 623 726
699 2 2 1 1 313 311 315
700 2 2 1 1 898 704 982
701 2 2 1 1 277 268 279
702 2 2 1 1 204 205 206
703 2 2 1 1 168 33 644
704 2 2 1 1 612 611 798
705 2 2 1 1 674 154 992
706 2 2 1 1 609 608 610
707 2 2 1 1 801 147 1006
708 2 2 1 1 597 433 945
709 2 2 1 1 117 141 711
710 2 2 1 1 156 689 863
711 2 2 1 1 218 225 237
712 2 2 1 1 668 669 712
713 2 2 1 1 917 428 976
714 2 2 1 1 317 485 1014
715 2 2 1 1 698 55 699
716 2 2 1 1 272 271 743
717 2 2 1 1 638 639 909
718 2 2 1 1 288 807 858
719 2 2 1 1 370 376 722
720 2 2 1 1 714 715 716
721 2 2 1 1 622 692 724
722 2 2 1 1 428 701 859
723 2 2 1 1 141 13 697
724 2 2 1 1 602 599 755
725 2 2 1 1 206 207 208
726 2 2 1 1 55 56 699
727 2 2 1 1 687 152 737
728 2 2 1 1 402 454 670
729 2 2 1 1 899 765 919
730 2 2 1 1 686 659 918
731 2 2 1 1 713 179 714
732 2 2 1 1 694 195 695
733 2 2 1 1 371 369 372
734 2 2 1 1 318 317 319
735 2 2 1 1 415 680 763
736 2 2 1 1 891 302 986
737 2 2 1 1 530 531 740
738 2 2 1 1 603 289 997
739 2 2 1 1 257 283 875
740 2 2 1 1 505 361 727
741 2 2 1 1 567 566 568
742 2 2 1 1 394 676 962
743 2 2 1 1 14 116 172
744 2 2 1 1 361 347 727
745 2 2 1 1 367 365 433
746 2 2 1 1 13 118 697
747 2 2 1 1 376 378 487
748 2 2 1 1 801 525 854
749 2 2 1 1 380 397 398
750 2 2 1 1 466 696 706
751 2 2 1 1 482 481 483
752 2 2 1 1 716 717 718
753 2 2 1 1 196 194 822
754 2 2 1 1 454 404 455
755 2 2 1 1 167 101 617
756 2 2 1 1 208 209 210
757 2 2 1 1 54 55 698
758 2 2 1 1 162 57 713
759 2 2 1 1 714 179 715
760 2 2 1 1 531 865 866
761 2 2 1 1 26 27 675
762 2 2 1 1 250 646 930
763 2 2 1 1 454 629 670
764 2 2 1 1 466 546 547
765 2 2 1 1 165 38 757
766 2 2 1 1 442 441 443
767 2 2 1 1 28 29 677
768 2 2 1 1 117 13 141
769 2 2 1 1 887 294 896
770 2 2 1 1 351 340 652
771 2 2 1 1 492 491 549
772 2 2 1 1 126 127 154
773 2 2 1 1 693 510 937
774 2 2 1 1 148 67 721
775 2 2 1 1 879 453 927
776 2 2 1 1 376 487 722
777 2 2 1 1 338 337 339
778 2 2 1 1 56 57 162
779 2 2 1 1 686 826 835
780 2 2 1 1 749 249 887
781 2 2 1 1 373 372 374
782 2 2 1 1 300 298 394
783 2 2 1 1 725 527 832
784 2 2 1 1 747 740 802
785 2 2 1 1 65 66 704
786 2 2 1 1 407 189 829
787 2 2 1 1 150 588 589
788 2 2 1 1 634 636 638
789 2 2 1 1 210 211 212
790 2 2 1 1 43 44 163
791 2 2 1 1 254 255 257
792 2 2 1 1 58 179 713
793 2 2 1 1 703 702 749
794 2 2 1 1 344 343 345
795 2 2 1 1 651 12 925
796 2 2 1 1 628 455 630
797 2 2 1 1 180 768 1001
798 2 2 1 1 130 666 897
799 2 2 1 1 713 714 776
800 2 2 1 1 57 58 713
801 2 2 1 1 538 687 738
802 2 2 1 1 710 353 752
803 2 2 1 1 689 486 863
804 2 2 1 1 2 74 881
805 2 2 1 1 116 117 711
806 2 2 1 1 50 171 720
807 2 2 1 1 63 64 170
808 2 2 1 1 591 589 814
809 2 2 1 1 172 711 999
810 2 2 1 1 67 68 721
811 2 2 1 1 418 303 419
812 2 2 1 1 596 73 881
813 2 2 1 1 556 406 785
814 2 2 1 1 50 51 171
815 2 2 1 1 821 169 904
816 2 2 1 1 399 401 402
817 2 2 1 1 496 49 720
818 2 2 1 1 733 760 890
819 2 2 1 1 49 50 720
820 2 2 1 1 402 403 404
821 2 2 1 1 58 59 179
822 2 2 1 1 45 46 180
823 2 2 1 1 61 62 495
824 2 2 1 1 620 467 821
825 2 2 1 1 48 49 496
826 2 2 1 1 76 150 817
827 2 2 1 1 421 422 423
828 2 2 1 1 38 39 757
829 2 2 1 1 598 602 1011
830 2 2 1 1 280 279 286
831 2 2 1 1 246 262 270
832 2 2 1 1 270 271 272
833 2 2 1 1 570 569 998
834 2 2 1 1 526 483 527
835 2 2 1 1 228 233 466
836 2 2 1 1 346 345 348
837 2 2 1 1 614 470 790
838 2 2 1 1 716 715 717
839 2 2 1 1 794 795 813
840 2 2 1 1 534 694 695
841 2 2 1 1 819 239 935
842 2 2 1 1 181 516 666
843 2 2 1 1 172 116 711
844 2 2 1 1 444 443 445
845 2 2 1 1 320 319 321
846 2 2 1 1 51 52 734
847 2 2 1 1 842 357 911
848 2 2 1 1 473 673 980
849 2 2 1 1 393 517 731
850 2 2 1 1 128 9 650
851 2 2 1 1 256 686 835
852 2 2 1 1 166 723 773
853 2 2 1 1 287 286 297
854 2 2 1 1 676 649 962
855 2 2 1 1 645 741 850
856 2 2 1 1 291 296 393
857 2 2 1 1 300 394 852
858 2 2 1 1 184 187 926
859 2 2 1 1 274 290 291
860 2 2 1 1 502 712 873
861 2 2 1 1 529 381 597
862 2 2 1 1 423 424 425
863 2 2 1 1 513 512 514
864 2 2 1 1 398 397 399
865 2 2 1 1 349 348 350
866 2 2 1 1 638 636 639
867 2 2 1 1 761 616 1000
868 2 2 1 1 795 407 813
869 2 2 1 1 200 275 979
870 2 2 1 1 519 520 554
871 2 2 1 1 200 199 201
872 2 2 1 1 464 494 935
873 2 2 1 1 322 321 323
874 2 2 1 1 588 648 649
875 2 2 1 1 538 738 999
876 2 2 1 1 533 406 556
877 2 2 1 1 830 638 892
878 2 2 1 1 708 220 803
879 2 2 1 1 895 693 937
880 2 2 1 1 689 156 929
881 2 2 1 1 568 606 607
882 2 2 1 1 545 437 791
883 2 2 1 1 332 331 333
884 2 2 1 1 324 323 325
885 2 2 1 1 271 274 743
886 2 2 1 1 294 696 896
887 2 2 1 1 695 200 979
888 2 2 1 1 326 325 327
889 2 2 1 1 552 794 813
890 2 2 1 1 393 438 517
891 2 2 1 1 212 213 214
892 2 2 1 1 796 288 858
893 2 2 1 1 185 183 512
894 2 2 1 1 439 383 645
895 2 2 1 1 202 201 203
896 2 2 1 1 669 276 833
897 2 2 1 1 436 419 467
898 2 2 1 1 41 42 745
899 2 2 1 1 893 157 1005
900 2 2 1 1 327 325 849
901 2 2 1 1 257 258 259
902 2 2 1 1 328 327 329
903 2 2 1 1 759 528 891
904 2 2 1 1 204 203 205
905 2 2 1 1 739 152 989
906 2 2 1 1 497 391 499
907 2 2 1 1 206 205 207
908 2 2 1 1 123 124 145
909 2 2 1 1 156 665 929
910 2 2 1 1 615 505 641
911 2 2 1 1 306 458 748
912 2 2 1 1 494 361 505
913 2 2 1 1 747 802 903
914 2 2 1 1 206 819 1004
915 2 2 1 1 661 726 906
916 2 2 1 1 149 41 745
917 2 2 1 1 630 484 974
918 2 2 1 1 630 631 632
919 2 2 1 1 568 607 710
920 2 2 1 1 715 179 766
921 2 2 1 1 543 566 567
922 2 2 1 1 402 401 403
923 2 2 1 1 446 445 447
924 2 2 1 1 208 207 209
925 2 2 1 1 112 15 730
926 2 2 1 1 499 391 784
927 2 2 1 1 122 11 362
928 2 2 1 1 291 393 841
929 2 2 1 1 515 514 551
930 2 2 1 1 404 403 456
931 2 2 1 1 632 830 884
932 2 2 1 1 576 395 777
933 2 2 1 1 59 60 766
934 2 2 1 1 46 47 768
935 2 2 1 1 421 414 422
936 2 2 1 1 672 756 951
937 2 2 1 1 121 122 732
938 2 2 1 1 856 559 911
939 2 2 1 1 607 608 609
940 2 2 1 1 559 856 872
941 2 2 1 1 171 51 734
942 2 2 1 1 634 638 830
943 2 2 1 1 754 456 801
944 2 2 1 1 291 290 296
945 2 2 1 1 120 121 158
946 2 2 1 1 609 610 611
947 2 2 1 1 210 209 211
948 2 2 1 1 432 572 983
949 2 2 1 1 707 708 978
950 2 2 1 1 726 623 1005
951 2 2 1 1 654 644 867
952 2 2 1 1 649 648 962
953 2 2 1 1 714 716 868
954 2 2 1 1 632 633 634
955 2 2 1 1 526 527 725
956 2 2 1 1 657 526 806
957 2 2 1 1 466 233 546
958 2 2 1 1 567 568 710
959 2 2 1 1 500 681 901
960 2 2 1 1 405 506 535
961 2 2 1 1 425 426 427
962 2 2 1 1 625 167 928
963 2 2 1 1 274 291 743
964 2 2 1 1 633 631 637
965 2 2 1 1 313 315 316
966 2 2 1 1 726 92 906
967 2 2 1 1 281 273 282
968 2 2 1 1 214 215 216
969 2 2 1 1 270 262 271
970 2 2 1 1 212 211 213
971 2 2 1 1 163 44 823
972 2 2 1 1 634 635 636
973 2 2 1 1 64 65 825
974 2 2 1 1 399 400 401
975 2 2 1 1 237 225 238
976 2 2 1 1 335 337 338
977 2 2 1 1 382 441 442
978 2 2 1 1 282 830 892
979 2 2 1 1 604 175 932
980 2 2 1 1 224 227 228
981 2 2 1 1 565 697 883
982 2 2 1 1 348 384 764
983 2 2 1 1 341 343 344
984 2 2 1 1 535 506 581
985 2 2 1 1 550 549 751
986 2 2 1 1 393 296 438
987 2 2 1 1 630 455 631
988 2 2 1 1 109 16 139
989 2 2 1 1 113 114 152
990 2 2 1 1 17 107 156
991 2 2 1 1 191 189 407
992 2 2 1 1 386 295 387
993 2 2 1 1 18 104 140
994 2 2 1 1 9 144 650
995 2 2 1 1 632 631 633
996 2 2 1 1 169 656 904
997 2 2 1 1 235 240 241
998 2 2 1 1 380 396 397
999 2 2 1 1 45 180 823
1000 2 2 1 1 316 317 318
1001 2 2 1 1 637 754 801
1002 2 2 1 1 10 126 947
1003 2 2 1 1 448 447 469
1004 2 2 1 1 765 242 919
1005 2 2 1 1 487 683 808
1006 2 2 1 1 39 40 924
1007 2 2 1 1 226 223 269
1008 2 2 1 1 378 379 380
1009 2 2 1 1 330 327 849
1010 2 2 1 1 111 112 138
1011 2 2 1 1 493 469 586
1012 2 2 1 1 358 350 359
1013 2 2 1 1 423 422 424
1014 2 2 1 1 404 456 754
1015 2 2 1 1 114 115 737
1016 2 2 1 1 371 372 373
1017 2 2 1 1 456 511 525
1018 2 2 1 1 399 397 400
1019 2 2 1 1 43 163 874
1020 2 2 1 1 8 132 151
1021 2 2 1 1 376 377 378
1022 2 2 1 1 150 590 817
1023 2 2 1 1 75 76 817
1024 2 2 1 1 908 606 921
1025 2 2 1 1 216 217 218
1026 2 2 1 1 815 641 984
1027 2 2 1 1 506 474 561
1028 2 2 1 1 124 125 728
1029 2 2 1 1 634 633 635
1030 2 2 1 1 261 245 285
1031 2 2 1 1 425 424 426
1032 2 2 1 1 282 273 774
1033 2 2 1 1 456 403 511
1034 2 2 1 1 405 400 474
1035 2 2 1 1 52 53 854
1036 2 2 1 1 259 263 264
1037 2 2 1 1 154 127 783
1038 2 2 1 1 11 123 837
1039 2 2 1 1 243 238 244
1040 2 2 1 1 405 474 506
1041 2 2 1 1 875 283 914
1042 2 2 1 1 401 400 405
1043 2 2 1 1 290 281 292
1044 2 2 1 1 438 296 465
1045 2 2 1 1 306 309 458
1046 2 2 1 1 542 642 834
1047 2 2 1 1 364 269 365
1048 2 2 1 1 388 387 389
1049 2 2 1 1 345 343 800
1050 2 2 1 1 477 475 624
1051 2 2 1 1 599 601 755
1052 2 2 1 1 248 244 249
1053 2 2 1 1 214 213 215
1054 2 2 1 1 635 699 934
1055 2 2 1 1 15 113 739
1056 2 2 1 1 84 6 941
1057 2 2 1 1 122 362 732
1058 2 2 1 1 252 249 253
1059 2 2 1 1 427 429 481
1060 2 2 1 1 174 435 507
1061 2 2 1 1 370 375 376
1062 2 2 1 1 559 558 911
1063 2 2 1 1 690 140 915
1064 2 2 1 1 274 281 290
1065 2 2 1 1 127 128 783
1066 2 2 1 1 360 323 916
1067 2 2 1 1 235 236 240
1068 2 2 1 1 815 545 953
1069 2 2 1 1 158 121 732
1070 2 2 1 1 5 24 913
1071 2 2 1 1 329 331 332
1072 2 2 1 1 438 465 509
1073 2 2 1 1 179 59 766
1074 2 2 1 1 272 743 787
1075 2 2 1 1 180 46 768
1076 2 2 1 1 236 232 247
1077 2 2 1 1 780 604 932
1078 2 2 1 1 271 273 274
1079 2 2 1 1 224 226 227
1080 2 2 1 1 412 817 942
1081 2 2 1 1 187 386 926
1082 2 2 1 1 563 782 963
1083 2 2 1 1 637 631 754
1084 2 2 1 1 231 232 235
1085 2 2 1 1 216 215 217
1086 2 2 1 1 246 261 262
1087 2 2 1 1 519 452 520
1088 2 2 1 1 318 319 320
1089 2 2 1 1 208 239 819
1090 2 2 1 1 162 713 776
1091 2 2 1 1 396 379 406
1092 2 2 1 1 455 404 754
1093 2 2 1 1 298 297 676
1094 2 2 1 1 593 591 796
1095 2 2 1 1 247 808 939
1096 2 2 1 1 63 170 888
1097 2 2 1 1 380 379 396
1098 2 2 1 1 325 360 1009
1099 2 2 1 1 264 266 268
1100 2 2 1 1 804 221 866
1101 2 2 1 1 532 406 533
1102 2 2 1 1 254 253 255
1103 2 2 1 1 274 273 281
1104 2 2 1 1 378 377 379
1105 2 2 1 1 681 159 901
1106 2 2 1 1 377 375 501
1107 2 2 1 1 228 229 233
1108 2 2 1 1 885 465 985
1109 2 2 1 1 271 262 273
1110 2 2 1 1 849 325 1009
1111 2 2 1 1 152 687 989
1112 2 2 1 1 355 392 508
1113 2 2 1 1 442 443 444
1114 2 2 1 1 397 396 769
1115 2 2 1 1 108 109 736
1116 2 2 1 1 495 62 888
1117 2 2 1 1 145 124 728
1118 2 2 1 1 239 668 935
1119 2 2 1 1 260 206 1004
1120 2 2 1 1 241 245 246
1121 2 2 1 1 338 339 347
1122 2 2 1 1 1 35 867
1123 2 2 1 1 696 294 871
1124 2 2 1 1 296 290 742
1125 2 2 1 1 218 217 219
1126 2 2 1 1 240 236 242
1127 2 2 1 1 370 369 371
1128 2 2 1 1 373 374 383
1129 2 2 1 1 155 7 779
1130 2 2 1 1 344 345 346
1131 2 2 1 1 662 468 791
1132 2 2 1 1 246 245 261
1133 2 2 1 1 753 577 928
1134 2 2 1 1 153 767 907
1135 2 2 1 1 221 740 866
1136 2 2 1 1 405 535 758
1137 2 2 1 1 787 743 841
1138 2 2 1 1 332 333 502
1139 2 2 1 1 403 401 758
1140 2 2 1 1 599 600 601
1141 2 2 1 1 226 269 364
1142 2 2 1 1 326 327 328
1143 2 2 1 1 228 227 229
1144 2 2 1 1 376 375 377
1145 2 2 1 1 322 323 324
1146 2 2 1 1 290 292 742
1147 2 2 1 1 396 406 532
1148 2 2 1 1 605 651 921
1149 2 2 1 1 485 578 1014
1150 2 2 1 1 134 7 155
1151 2 2 1 1 705 508 940
1152 2 2 1 1 162 776 934
1153 2 2 1 1 284 807 857
1154 2 2 1 1 222 223 224
1155 2 2 1 1 724 90 893
1156 2 2 1 1 324 325 326
1157 2 2 1 1 346 348 349
1158 2 2 1 1 424 422 503
1159 2 2 1 1 631 455 754
1160 2 2 1 1 339 341 735
1161 2 2 1 1 467 500 901
1162 2 2 1 1 241 240 245
1163 2 2 1 1 544 879 927
1164 2 2 1 1 736 665 889
1165 2 2 1 1 503 787 841
1166 2 2 1 1 23 91 157
1167 2 2 1 1 368 722 824
1168 2 2 1 1 494 505 615
1169 2 2 1 1 125 10 174
1170 2 2 1 1 235 232 236
1171 2 2 1 1 755 601 756
1172 2 2 1 1 414 272 787
1173 2 2 1 1 422 414 787
1174 2 2 1 1 229 230 231
1175 2 2 1 1 261 285 484
1176 2 2 1 1 320 321 322
1177 2 2 1 1 594 593 595
1178 2 2 1 1 640 518 960
1179 2 2 1 1 769 532 816
1180 2 2 1 1 218 219 225
1181 2 2 1 1 687 643 989
1182 2 2 1 1 748 458 1012
1183 2 2 1 1 143 31 688
1184 2 2 1 1 362 11 837
1185 2 2 1 1 400 397 769
1186 2 2 1 1 229 227 230
1187 2 2 1 1 557 674 992
1188 2 2 1 1 530 740 747
1189 2 2 1 1 401 405 758
1190 2 2 1 1 22 146 573
1191 2 2 1 1 383 374 741
1192 2 2 1 1 37 165 956
1193 2 2 1 1 364 366 560
1194 2 2 1 1 231 230 232
1195 2 2 1 1 231 693 895
1196 2 2 1 1 257 255 258
1197 2 2 1 1 463 844 900
1198 2 2 1 1 474 769 816
1199 2 2 1 1 752 351 810
1200 2 2 1 1 646 523 930
1201 2 2 1 1 509 465 885
1202 2 2 1 1 190 192 193
1203 2 2 1 1 465 296 742
1204 2 2 1 1 105 106 486
1205 2 2 1 1 805 804 866
1206 2 2 1 1 368 367 369
1207 2 2 1 1 566 565 883
1208 2 2 1 1 727 735 851
1209 2 2 1 1 514 512 882
1210 2 2 1 1 160 677 678
1211 2 2 1 1 444 445 446
1212 2 2 1 1 524 603 843
1213 2 2 1 1 152 114 737
1214 2 2 1 1 740 221 802
1215 2 2 1 1 133 134 762
1216 2 2 1 1 458 459 460
1217 2 2 1 1 427 426 429
1218 2 2 1 1 355 508 831
1219 2 2 1 1 474 400 769
1220 2 2 1 1 738 737 936
1221 2 2 1 1 132 133 744
1222 2 2 1 1 370 371 375
1223 2 2 1 1 18 140 562
1224 2 2 1 1 511 403 758
1225 2 2 1 1 592 591 593
1226 2 2 1 1 259 258 263
1227 2 2 1 1 374 382 741
1228 2 2 1 1 197 198 199
1229 2 2 1 1 347 339 735
1230 2 2 1 1 138 112 730
1231 2 2 1 1 640 739 989
1232 2 2 1 1 224 223 226
1233 2 2 1 1 641 505 861
1234 2 2 1 1 215 213 385
1235 2 2 1 1 60 4 948
1236 2 2 1 1 4 61 948
1237 2 2 1 1 47 3 949
1238 2 2 1 1 3 48 949
1239 2 2 1 1 265 196 822
1240 2 2 1 1 431 439 564
1241 2 2 1 1 518 519 853
1242 2 2 1 1 328 329 784
1243 2 2 1 1 396 532 769
1244 2 2 1 1 429 426 449
1245 2 2 1 1 527 483 761
1246 2 2 1 1 283 259 950
1247 2 2 1 1 95 22 573
1248 2 2 1 1 366 365 367
1249 2 2 1 1 620 821 904
1250 2 2 1 1 368 369 370
1251 2 2 1 1 650 144 709
1252 2 2 1 1 222 706 811
1253 2 2 1 1 554 520 555
1254 2 2 1 1 416 10 947
1255 2 2 1 1 93 94 153
1256 2 2 1 1 9 129 144
1257 2 2 1 1 429 449 471
1258 2 2 1 1 486 690 915
1259 2 2 1 1 113 152 739
1260 2 2 1 1 541 543 810
1261 2 2 1 1 73 2 881
1262 2 2 1 1 147 698 1006
1263 2 2 1 1 567 710 752
1264 2 2 1 1 364 365 366
1265 2 2 1 1 696 547 896
1266 2 2 1 1 839 838 864
1267 2 2 1 1 94 95 767
1268 2 2 1 1 431 383 439
1269 2 2 1 1 349 350 358
1270 2 2 1 1 590 589 591
1271 2 2 1 1 341 344 735
1272 2 2 1 1 185 512 513
1273 2 2 1 1 139 476 478
1274 2 2 1 1 419 303 852
1275 2 2 1 1 373 383 431
1276 2 2 1 1 687 737 738
1277 2 2 1 1 174 507 728
1278 2 2 1 1 160 678 794
1279 2 2 1 1 219 217 220
1280 2 2 1 1 219 220 222
1281 2 2 1 1 285 245 765
1282 2 2 1 1 139 16 475
1283 2 2 1 1 502 333 827
1284 2 2 1 1 99 21 142
1285 2 2 1 1 88 89 166
1286 2 2 1 1 564 439 585
1287 2 2 1 1 609 611 612
1288 2 2 1 1 181 182 516
1289 2 2 1 1 87 88 773
1290 2 2 1 1 211 209 221
1291 2 2 1 1 184 186 187
1292 2 2 1 1 382 442 741
1293 2 2 1 1 503 422 787
1294 2 2 1 1 85 86 775
1295 2 2 1 1 86 87 177
1296 2 2 1 1 407 829 943
1297 2 2 1 1 135 136 363
1298 2 2 1 1 456 525 801
1299 2 2 1 1 98 99 771
1300 2 2 1 1 610 608 955
1301 2 2 1 1 711 141 834
1302 2 2 1 1 577 626 928
1303 2 2 1 1 808 683 939
1304 2 2 1 1 507 435 797
1305 2 2 1 1 522 408 544
1306 2 2 1 1 240 242 765
1307 2 2 1 1 136 137 781
1308 2 2 1 1 611 610 799
1309 2 2 1 1 264 263 266
1310 2 2 1 1 12 120 925
1311 2 2 1 1 193 194 195
1312 2 2 1 1 433 707 865
1313 2 2 1 1 109 139 736
1314 2 2 1 1 730 739 960
1315 2 2 1 1 722 487 808
1316 2 2 1 1 273 262 774
1317 2 2 1 1 262 261 774
1318 2 2 1 1 195 197 695
1319 2 2 1 1 97 98 178
1320 2 2 1 1 321 432 983
1321 2 2 1 1 222 220 223
1322 2 2 1 1 165 757 818
1323 2 2 1 1 201 199 733
1324 2 2 1 1 712 920 1008
1325 2 2 1 1 460 461 462
1326 2 2 1 1 723 621 750
1327 2 2 1 1 392 391 497
1328 2 2 1 1 128 650 783
1329 2 2 1 1 653 176 880
1330 2 2 1 1 7 135 779
1331 2 2 1 1 245 240 765
1332 2 2 1 1 853 730 960
1333 2 2 1 1 329 332 784
1334 2 2 1 1 44 45 823
1335 2 2 1 1 96 97 788
1336 2 2 1 1 464 361 494
1337 2 2 1 1 170 64 825
1338 2 2 1 1 905 583 1003
1339 2 2 1 1 195 196 197
1340 2 2 1 1 446 447 448
1341 2 2 1 1 244 238 294
1342 2 2 1 1 406 379 785
1343 2 2 1 1 462 490 491
1344 2 2 1 1 452 415 763
1345 2 2 1 1 709 144 836
1346 2 2 1 1 836 144 897
1347 2 2 1 1 22 96 146
1348 2 2 1 1 163 816 946
1349 2 2 1 1 355 328 391
1350 2 2 1 1 535 581 923
1351 2 2 1 1 187 188 295
1352 2 2 1 1 142 21 625
1353 2 2 1 1 335 338 827
1354 2 2 1 1 547 546 976
1355 2 2 1 1 205 203 234
1356 2 2 1 1 366 367 368
1357 2 2 1 1 593 796 858
1358 2 2 1 1 573 146 574
1359 2 2 1 1 471 449 793
1360 2 2 1 1 358 359 437
1361 2 2 1 1 478 479 571
1362 2 2 1 1 606 605 921
1363 2 2 1 1 389 434 468
1364 2 2 1 1 255 253 256
1365 2 2 1 1 576 662 961
1366 2 2 1 1 534 434 694
1367 2 2 1 1 513 514 515
1368 2 2 1 1 599 143 600
1369 2 2 1 1 483 481 786
1370 2 2 1 1 352 347 361
1371 2 2 1 1 509 704 898
1372 2 2 1 1 767 673 907
1373 2 2 1 1 312 311 313
1374 2 2 1 1 268 266 284
1375 2 2 1 1 333 335 827
1376 2 2 1 1 874 163 946
1377 2 2 1 1 635 633 846
1378 2 2 1 1 392 497 498
1379 2 2 1 1 448 469 493
1380 2 2 1 1 259 264 950
1381 2 2 1 1 515 551 552
1382 2 2 1 1 697 173 883
1383 2 2 1 1 53 147 854
1384 2 2 1 1 307 305 308
1385 2 2 1 1 266 263 267
1386 2 2 1 1 352 361 464
1387 2 2 1 1 338 347 352
1388 2 2 1 1 501 375 820
1389 2 2 1 1 261 484 774
1390 2 2 1 1 377 501 785
1391 2 2 1 1 125 174 728
1392 2 2 1 1 616 653 1000
1393 2 2 1 1 175 26 675
1394 2 2 1 1 326 328 355
1395 2 2 1 1 561 474 816
1396 2 2 1 1 160 28 677
1397 2 2 1 1 379 377 785
1398 2 2 1 1 199 198 250
1399 2 2 1 1 602 755 912
1400 2 2 1 1 322 324 390
1401 2 2 1 1 504 775 969
1402 2 2 1 1 355 391 392
1403 2 2 1 1 310 308 311
1404 2 2 1 1 391 328 784
1405 2 2 1 1 182 151 183
1406 2 2 1 1 794 678 795
1407 2 2 1 1 351 652 954
1408 2 2 1 1 699 162 934
1409 2 2 1 1 247 232 910
1410 2 2 1 1 676 297 814
1411 2 2 1 1 632 634 830
1412 2 2 1 1 444 446 480
1413 2 2 1 1 684 514 991
1414 2 2 1 1 346 349 356
1415 2 2 1 1 608 606 908
1416 2 2 1 1 227 226 789
1417 2 2 1 1 230 227 789
1418 2 2 1 1 481 429 809
1419 2 2 1 1 371 373 820
1420 2 2 1 1 303 300 852
1421 2 2 1 1 358 437 457
1422 2 2 1 1 359 576 961
1423 2 2 1 1 710 607 812
1424 2 2 1 1 292 281 892
1425 2 2 1 1 364 560 789
1426 2 2 1 1 592 593 594
1427 2 2 1 1 174 10 416
1428 2 2 1 1 755 756 958
1429 2 2 1 1 510 420 917
1430 2 2 1 1 286 279 288
1431 2 2 1 1 493 586 654
1432 2 2 1 1 544 408 879
1433 2 2 1 1 209 207 802
1434 2 2 1 1 106 17 863
1435 2 2 1 1 506 561 933
1436 2 2 1 1 543 567 810
1437 2 2 1 1 448 493 584
1438 2 2 1 1 716 719 868
1439 2 2 1 1 193 192 194
1440 2 2 1 1 731 449 886
1441 2 2 1 1 520 452 763
1442 2 2 1 1 458 460 1012
1443 2 2 1 1 17 156 863
1444 2 2 1 1 574 146 575
1445 2 2 1 1 592 594 770
1446 2 2 1 1 457 545 815
1447 2 2 1 1 139 478 736
1448 2 2 1 1 629 899 919
1449 2 2 1 1 756 822 958
1450 2 2 1 1 213 211 804
1451 2 2 1 1 375 371 820
1452 2 2 1 1 613 582 987
1453 2 2 1 1 435 539 540
1454 2 2 1 1 756 601 951
1455 2 2 1 1 150 589 590
1456 2 2 1 1 786 481 809
1457 2 2 1 1 607 609 812
1458 2 2 1 1 457 437 545
1459 2 2 1 1 573 673 767
1460 2 2 1 1 705 251 872
1461 2 2 1 1 575 146 788
1462 2 2 1 1 476 475 477
1463 2 2 1 1 123 145 837
1464 2 2 1 1 353 710 812
1465 2 2 1 1 601 600 790
1466 2 2 1 1 435 416 539
1467 2 2 1 1 529 597 945
1468 2 2 1 1 644 34 867
1469 2 2 1 1 556 785 1010
1470 2 2 1 1 199 250 733
1471 2 2 1 1 438 509 898
1472 2 2 1 1 373 431 820
1473 2 2 1 1 156 107 889
1474 2 2 1 1 761 483 786
1475 2 2 1 1 629 628 899
1476 2 2 1 1 167 617 753
1477 2 2 1 1 139 475 476
1478 2 2 1 1 507 797 878
1479 2 2 1 1 40 149 924
1480 2 2 1 1 737 115 936
1481 2 2 1 1 197 196 198
1482 2 2 1 1 131 8 181
1483 2 2 1 1 219 222 811
1484 2 2 1 1 439 645 977
1485 2 2 1 1 844 603 900
1486 2 2 1 1 554 555 839
1487 2 2 1 1 158 921 925
1488 2 2 1 1 313 316 453
1489 2 2 1 1 645 818 977
1490 2 2 1 1 797 798 878
1491 2 2 1 1 573 574 673
1492 2 2 1 1 590 591 592
1493 2 2 1 1 229 231 895
1494 2 2 1 1 226 364 789
1495 2 2 1 1 263 258 826
1496 2 2 1 1 174 416 435
1497 2 2 1 1 681 500 944
1498 2 2 1 1 671 629 919
1499 2 2 1 1 458 309 459
1500 2 2 1 1 468 434 534
1501 2 2 1 1 198 196 265
1502 2 2 1 1 304 305 306
1503 2 2 1 1 539 416 840
1504 2 2 1 1 429 471 809
1505 2 2 1 1 541 810 954
1506 2 2 1 1 564 746 902
1507 2 2 1 1 760 234 890
1508 2 2 1 1 195 194 196
1509 2 2 1 1 389 387 434
1510 2 2 1 1 299 302 891
1511 2 2 1 1 633 637 846
1512 2 2 1 1 792 275 953
1513 2 2 1 1 318 320 357
1514 2 2 1 1 394 298 676
1515 2 2 1 1 225 219 811
1516 2 2 1 1 151 132 744
1517 2 2 1 1 36 37 956
1518 2 2 1 1 217 215 803
1519 2 2 1 1 572 479 838
1520 2 2 1 1 595 593 858
1521 2 2 1 1 807 725 832
1522 2 2 1 1 500 419 852
1523 2 2 1 1 314 521 877
1524 2 2 1 1 580 815 953
1525 2 2 1 1 140 104 915
1526 2 2 1 1 338 352 827
1527 2 2 1 1 190 189 191
1528 2 2 1 1 449 426 886
1529 2 2 1 1 560 366 824
1530 2 2 1 1 190 191 192
1531 2 2 1 1 192 191 293
1532 2 2 1 1 102 19 304
1533 2 2 1 1 796 591 814
1534 2 2 1 1 160 794 981
1535 2 2 1 1 777 395 967
1536 2 2 1 1 701 703 859
1537 2 2 1 1 600 143 688
1538 2 2 1 1 470 672 951
1539 2 2 1 1 562 140 782
1540 2 2 1 1 571 479 572
1541 2 2 1 1 478 476 479
1542 2 2 1 1 435 540 797
1543 2 2 1 1 42 43 874
1544 2 2 1 1 636 635 934
1545 2 2 1 1 234 747 903
1546 2 2 1 1 549 491 759
1547 2 2 1 1 467 419 500
1548 2 2 1 1 626 625 928
1549 2 2 1 1 154 840 947
1550 2 2 1 1 184 183 185
1551 2 2 1 1 142 626 627
1552 2 2 1 1 187 186 188
1553 2 2 1 1 184 185 186
1554 2 2 1 1 612 798 1002
1555 2 2 1 1 107 108 889
1556 2 2 1 1 744 133 762
1557 2 2 1 1 674 777 996
1558 2 2 1 1 385 213 804
1559 2 2 1 1 522 544 729
1560 2 2 1 1 839 864 959
1561 2 2 1 1 424 503 886
1562 2 2 1 1 777 967 996
1563 2 2 1 1 188 186 189
1564 2 2 1 1 567 752 810
1565 2 2 1 1 74 412 881
1566 2 2 1 1 172 738 936
1567 2 2 1 1 108 736 889
1568 2 2 1 1 859 547 976
1569 2 2 1 1 155 779 991
1570 2 2 1 1 822 194 845
1571 2 2 1 1 385 804 805
1572 2 2 1 1 417 473 993
1573 2 2 1 1 134 155 762
1574 2 2 1 1 546 233 937
1575 2 2 1 1 62 63 888
1576 2 2 1 1 907 473 994
1577 2 2 1 1 310 312 314
1578 2 2 1 1 167 753 928
1579 2 2 1 1 609 612 812
1580 2 2 1 1 310 311 312
1581 2 2 1 1 215 385 803
1582 2 2 1 1 491 490 655
1583 2 2 1 1 188 189 190
1584 2 2 1 1 486 106 863
1585 2 2 1 1 666 836 897
1586 2 2 1 1 462 461 490
1587 2 2 1 1 242 236 939
1588 2 2 1 1 468 534 792
1589 2 2 1 1 499 784 873
1590 2 2 1 1 220 217 803
1591 2 2 1 1 852 394 944
1592 2 2 1 1 460 459 461
1593 2 2 1 1 621 620 904
1594 2 2 1 1 718 885 985
1595 2 2 1 1 515 552 813
1596 2 2 1 1 161 761 786
1597 2 2 1 1 221 209 802
1598 2 2 1 1 791 468 792
1599 2 2 1 1 848 330 849
1600 2 2 1 1 304 306 748
1601 2 2 1 1 743 291 841
1602 2 2 1 1 211 221 804
1603 2 2 1 1 407 795 970
1604 2 2 1 1 794 552 981
1605 2 2 1 1 570 689 929
1606 2 2 1 1 230 789 910
1607 2 2 1 1 531 529 945
1608 2 2 1 1 307 308 310
1609 2 2 1 1 366 368 824
1610 2 2 1 1 790 470 951
1611 2 2 1 1 553 905 1003
1612 2 2 1 1 153 94 767
1613 2 2 1 1 501 820 902
1614 2 2 1 1 550 751 1003
1615 2 2 1 1 267 263 826
1616 2 2 1 1 314 408 521
1617 2 2 1 1 268 284 857
1618 2 2 1 1 740 531 866
1619 2 2 1 1 508 392 940
1620 2 2 1 1 772 550 922
1621 2 2 1 1 182 183 184
1622 2 2 1 1 694 434 1013
1623 2 2 1 1 798 611 878
1624 2 2 1 1 203 201 890
1625 2 2 1 1 518 853 960
1626 2 2 1 1 88 166 773
1627 2 2 1 1 843 603 844
1628 2 2 1 1 90 23 893
1629 2 2 1 1 129 130 897
1630 2 2 1 1 698 846 1006
1631 2 2 1 1 177 87 773
1632 2 2 1 1 594 595 880
1633 2 2 1 1 86 177 775
1634 2 2 1 1 332 502 873
1635 2 2 1 1 99 142 771
1636 2 2 1 1 426 424 886
1637 2 2 1 1 789 560 910
1638 2 2 1 1 105 486 915
1639 2 2 1 1 104 105 915
1640 2 2 1 1 552 551 938
1641 2 2 1 1 294 238 871
1642 2 2 1 1 517 438 898
1643 2 2 1 1 461 459 463
1644 2 2 1 1 843 283 950
1645 2 2 1 1 282 774 884
1646 2 2 1 1 23 157 893
1647 2 2 1 1 551 932 938
1648 2 2 1 1 820 431 902
1649 2 2 1 1 324 326 831
1650 2 2 1 1 502 827 920
1651 2 2 1 1 95 573 767
1652 2 2 1 1 363 136 781
1653 2 2 1 1 281 282 892
1654 2 2 1 1 171 870 923
1655 2 2 1 1 628 630 974
1656 2 2 1 1 817 590 942
1657 2 2 1 1 555 848 849
1658 2 2 1 1 178 98 771
1659 2 2 1 1 521 408 522
1660 2 2 1 1 159 664 901
1661 2 2 1 1 238 225 871
1662 2 2 1 1 135 363 779
1663 2 2 1 1 142 627 771
1664 2 2 1 1 92 93 906
1665 2 2 1 1 255 256 835
1666 2 2 1 1 258 255 835
1667 2 2 1 1 808 247 965
1668 2 2 1 1 316 318 842
1669 2 2 1 1 477 624 975
1670 2 2 1 1 624 778 975
1671 2 2 1 1 201 733 890
1672 2 2 1 1 720 171 923
1673 2 2 1 1 778 138 853
1674 2 2 1 1 314 312 408
1675 2 2 1 1 244 294 887
1676 2 2 1 1 97 178 788
1677 2 2 1 1 784 332 873
1678 2 2 1 1 719 718 985
1679 2 2 1 1 306 307 309
1680 2 2 1 1 142 625 626
1681 2 2 1 1 590 592 942
1682 2 2 1 1 138 730 853
1683 2 2 1 1 225 811 871
1684 2 2 1 1 758 535 870
1685 2 2 1 1 574 575 583
1686 2 2 1 1 137 5 913
1687 2 2 1 1 326 355 831
1688 2 2 1 1 14 172 936
1689 2 2 1 1 207 205 903
1690 2 2 1 1 146 96 788
1691 2 2 1 1 306 305 307
1692 2 2 1 1 822 845 958
1693 2 2 1 1 922 550 1003
1694 2 2 1 1 491 655 759
1695 2 2 1 1 170 825 885
1696 2 2 1 1 233 229 895
1697 2 2 1 1 838 479 864
1698 2 2 1 1 869 36 956
1699 2 2 1 1 302 751 986
1700 2 2 1 1 766 60 948
1701 2 2 1 1 768 47 949
1702 2 2 1 1 855 390 856
1703 2 2 1 1 234 203 890
1704 2 2 1 1 826 258 835
1705 2 2 1 1 442 444 850
1706 2 2 1 1 746 556 1010
1707 2 2 1 1 511 758 870
1708 2 2 1 1 810 351 954
1709 2 2 1 1 444 480 850
1710 2 2 1 1 344 346 851
1711 2 2 1 1 431 564 902
1712 2 2 1 1 205 234 903
1713 2 2 1 1 346 356 851
1714 2 2 1 1 93 153 906
1715 2 2 1 1 390 324 831
1716 2 2 1 1 578 998 1014
1717 2 2 1 1 448 584 860
1718 2 2 1 1 825 509 885
1719 2 2 1 1 358 457 847
1720 2 2 1 1 144 129 897
1721 2 2 1 1 320 322 855
1722 2 2 1 1 279 268 857
1723 2 2 1 1 533 874 946
1724 2 2 1 1 293 912 958
1725 2 2 1 1 868 719 909
1726 2 2 1 1 735 344 851
1727 2 2 1 1 802 207 903
1728 2 2 1 1 637 801 1006
1729 2 2 1 1 741 442 850
1730 2 2 1 1 115 14 936
1731 2 2 1 1 534 695 979
1732 2 2 1 1 295 828 1013
1733 2 2 1 1 356 847 861
1734 2 2 1 1 831 508 957
1735 2 2 1 1 668 712 1008
1736 2 2 1 1 322 390 855
1737 2 2 1 1 779 684 991
1738 2 2 1 1 120 158 925
1739 2 2 1 1 581 506 933
1740 2 2 1 1 750 504 969
1741 2 2 1 1 360 838 839
1742 2 2 1 1 555 520 848
1743 2 2 1 1 249 244 887
1744 2 2 1 1 61 495 948
1745 2 2 1 1 234 760 972
1746 2 2 1 1 48 496 949
1747 2 2 1 1 649 676 966
1748 2 2 1 1 189 186 829
1749 2 2 1 1 158 732 908
1750 2 2 1 1 792 534 979
1751 2 2 1 1 293 191 970
1752 2 2 1 1 830 282 884
1753 2 2 1 1 126 154 947
1754 2 2 1 1 349 358 847
1755 2 2 1 1 757 585 977
1756 2 2 1 1 232 230 910
1757 2 2 1 1 356 349 847
1758 2 2 1 1 876 314 877
1759 2 2 1 1 520 763 848
1760 2 2 1 1 742 719 985
1761 2 2 1 1 185 513 829
1762 2 2 1 1 519 778 853
1763 2 2 1 1 480 446 860
1764 2 2 1 1 774 484 884
1765 2 2 1 1 313 453 879
1766 2 2 1 1 781 137 913
1767 2 2 1 1 285 899 974
1768 2 2 1 1 165 818 973
1769 2 2 1 1 312 313 879
1770 2 2 1 1 762 155 882
1771 2 2 1 1 507 878 995
1772 2 2 1 1 85 775 941
1773 2 2 1 1 827 352 920
1774 2 2 1 1 845 293 958
1775 2 2 1 1 288 279 857
1776 2 2 1 1 473 905 993
1777 2 2 1 1 285 765 899
1778 2 2 1 1 476 477 864
1779 2 2 1 1 747 234 972
1780 2 2 1 1 446 448 860
1781 2 2 1 1 816 532 946
1782 2 2 1 1 186 185 829
1783 2 2 1 1 6 85 941
1784 2 2 1 1 453 316 842
1785 2 2 1 1 352 464 920
1786 2 2 1 1 548 559 964
1787 2 2 1 1 536 541 954
1788 2 2 1 1 865 531 945
1789 2 2 1 1 800 612 1002
1790 2 2 1 1 878 799 995
1791 2 2 1 1 250 198 862
1792 2 2 1 1 247 910 965
1793 2 2 1 1 194 192 845
1794 2 2 1 1 917 546 937
1795 2 2 1 1 318 357 842
1796 2 2 1 1 584 493 869
1797 2 2 1 1 708 803 978
1798 2 2 1 1 192 293 845
1799 2 2 1 1 522 729 875
1800 2 2 1 1 357 320 855
1801 2 2 1 1 581 933 1001
1802 2 2 1 1 998 569 1014
1803 2 2 1 1 310 314 876
1804 2 2 1 1 843 844 914
1805 2 2 1 1 495 766 948
1806 2 2 1 1 496 768 949
1807 2 2 1 1 460 753 1012
1808 2 2 1 1 198 265 862
1809 2 2 1 1 572 838 916
1810 2 2 1 1 275 792 979
1811 2 2 1 1 578 689 998
1812 2 2 1 1 738 172 999
1813 2 2 1 1 665 571 990
1814 2 2 1 1 479 476 864
1815 2 2 1 1 236 247 939
1816 2 2 1 1 828 694 1013
1817 2 2 1 1 387 295 1013
1818 2 2 1 1 689 570 998
1819 2 2 1 1 905 473 980
1820 2 2 1 1 861 847 984
1821 2 2 1 1 428 859 976
1822 2 2 1 1 532 533 946
1823 2 2 1 1 242 939 988
1824 2 2 1 1 839 555 1009
1825 2 2 1 1 472 661 994
1826 2 2 1 1 611 799 878
1827 2 2 1 1 283 843 914
1828 2 2 1 1 899 628 974
1829 2 2 1 1 493 654 869
1830 2 2 1 1 360 839 1009
1831 2 2 1 1 390 831 957
1832 2 2 1 1 392 498 940
1833 2 2 1 1 840 416 947
1834 2 2 1 1 175 675 938
1835 2 2 1 1 803 385 978
1836 2 2 1 1 592 770 942
1837 2 2 1 1 457 815 984
1838 2 2 1 1 666 516 968
1839 2 2 1 1 751 553 1003
1840 2 2 1 1 733 250 930
1841 2 2 1 1 940 498 987
1842 2 2 1 1 627 626 931
1843 2 2 1 1 662 791 961
1844 2 2 1 1 732 362 955
1845 2 2 1 1 559 872 964
1846 2 2 1 1 465 742 985
1847 2 2 1 1 515 813 943
1848 2 2 1 1 799 145 995
1849 2 2 1 1 908 732 955
1850 2 2 1 1 840 674 996
1851 2 2 1 1 549 759 986
1852 2 2 1 1 408 312 879
1853 2 2 1 1 790 600 894
1854 2 2 1 1 847 457 984
1855 2 2 1 1 639 868 909
1856 2 2 1 1 600 688 894
1857 2 2 1 1 676 814 966
1858 2 2 1 1 307 310 876
1859 2 2 1 1 614 790 894
1860 2 2 1 1 514 882 991
1861 2 2 1 1 437 359 961
1862 2 2 1 1 554 839 959
1863 2 2 1 1 795 678 952
1864 2 2 1 1 585 439 977
1865 2 2 1 1 836 666 968
1866 2 2 1 1 513 515 943
1867 2 2 1 1 575 772 922
1868 2 2 1 1 309 307 876
1869 2 2 1 1 601 790 951
1870 2 2 1 1 463 459 1007
1871 2 2 1 1 484 285 974
1872 2 2 1 1 819 615 1004
1873 2 2 1 1 739 640 960
1874 2 2 1 1 267 826 918
1875 2 2 1 1 902 746 1010
1876 2 2 1 1 768 496 1001
1877 2 2 1 1 191 407 970
1878 2 2 1 1 546 917 976
1879 2 2 1 1 154 783 992
1880 2 2 1 1 838 360 916
1881 2 2 1 1 760 587 972
1882 2 2 1 1 671 919 988
1883 2 2 1 1 818 757 977
1884 2 2 1 1 921 651 925
1885 2 2 1 1 501 902 1010
1886 2 2 1 1 490 461 900
1887 2 2 1 1 870 535 923
1888 2 2 1 1 527 761 1000
1889 2 2 1 1 572 916 983
1890 2 2 1 1 791 437 961
1891 2 2 1 1 461 463 900
1892 2 2 1 1 540 539 967
1893 2 2 1 1 910 560 965
1894 2 2 1 1 798 384 1002
1895 2 2 1 1 952 678 1011
1896 2 2 1 1 498 497 971
1897 2 2 1 1 829 513 943
1898 2 2 1 1 770 412 942
1899 2 2 1 1 876 877 1007
1900 2 2 1 1 145 728 995
1901 2 2 1 1 856 390 957
1902 2 2 1 1 385 805 978
1903 2 2 1 1 233 895 937
1904 2 2 1 1 560 824 965
1905 2 2 1 1 872 251 964
1906 2 2 1 1 608 908 955
1907 2 2 1 1 497 833 971
1908 2 2 1 1 793 517 982
1909 2 2 1 1 524 843 950
1910 2 2 1 1 555 849 1009
1911 2 2 1 1 583 575 922
1912 2 2 1 1 673 574 980
1913 2 2 1 1 785 501 1010
1914 2 2 1 1 433 865 945
1915 2 2 1 1 967 539 996
1916 2 2 1 1 574 583 980
1917 2 2 1 1 500 852 944
1918 2 2 1 1 728 507 995
1919 2 2 1 1 584 869 956
1920 2 2 1 1 434 387 1013
1921 2 2 1 1 678 677 1011
1922 2 2 1 1 775 177 969
1923 2 2 1 1 900 603 997
1924 2 2 1 1 751 549 986
1925 2 2 1 1 813 407 943
1926 2 2 1 1 655 490 997
1927 2 2 1 1 846 637 1006
1928 2 2 1 1 877 463 1007
1929 2 2 1 1 583 905 980
1930 2 2 1 1 539 840 996
1931 2 2 1 1 939 683 988
1932 2 2 1 1 864 477 959
1933 2 2 1 1 932 175 938
1934 2 2 1 1 510 917 937
1935 2 2 1 1 783 557 992
1936 2 2 1 1 459 309 1007
1937 2 2 1 1 309 876 1007
1938 2 2 1 1 882 155 991
1939 2 2 1 1 490 900 997
1940 2 2 1 1 602 912 952
1941 2 2 1 1 919 242 988
1942 2 2 1 1 480 860 973
1943 2 2 1 1 517 898 982
1944 2 2 1 1 753 617 1012
1945 2 2 1 1 938 675 981
1946 2 2 1 1 602 952 1011
1947 2 2 1 1 661 907 994
1948 2 2 1 1 579 836 968
1949 2 2 1 1 912 755 958
1950 2 2 1 1 641 861 984
1951 2 2 1 1 929 665 990
1952 2 2 1 1 959 477 975
1953 2 2 1 1 552 938 981
1954 2 2 1 1 554 959 975
1955 2 2 1 1 920 464 1008
1956 2 2 1 1 583 922 1003
1957 2 2 1 1 905 553 993
1958 2 2 1 1 944 394 962
1959 2 2 1 1 681 944 962
1960 2 2 1 1 570 929 990
$EndElements
